Analysis(Run2MCcalib,bottom,DL1r,FixedCutBEff_70,AntiKtVR30Rmax4Rmin02TrackJets){
	bin(250.0<pt<400.0,0<abseta<2.5)
	{
		central_value(1.00,0.003)
		sys(MC_FSR,0.04%)
	}
	bin(400.0<pt<500.0,0<abseta<2.5)
	{
		central_value(1.00,0.005)
		sys(MC_FSR,-0.50%)
	}
	bin(500.0<pt<700.0,0<abseta<2.5)
	{
		central_value(1.00,0.004)
		sys(MC_FSR,-0.58%)
	}
	bin(700.0<pt<900.0,0<abseta<2.5)
	{
		central_value(1.00,0.007)
		sys(MC_FSR,0.94%)
	}
	bin(900.0<pt<1100.0,0<abseta<2.5)
	{
		central_value(1.00,0.010)
		sys(MC_FSR,-0.67%)
	}
	bin(1100.0<pt<1400.0,0<abseta<2.5)
	{
		central_value(1.00,0.011)
		sys(MC_FSR,2.09%)
	}
	bin(1400.0<pt<1700.0,0<abseta<2.5)
	{
		central_value(1.00,0.016)
		sys(MC_FSR,2.53%)
	}
	bin(1700.0<pt<2000.0,0<abseta<2.5)
	{
		central_value(1.00,0.021)
		sys(MC_FSR,9.03%)
	}
	bin(2000.0<pt<2500.0,0<abseta<2.5)
	{
		central_value(1.00,0.021)
		sys(MC_FSR,5.37%)
	}
	bin(2500.0<pt<3000.0,0<abseta<2.5)
	{
		central_value(1.00,0.028)
		sys(MC_FSR,0.48%)
	}
}
