Analysis(Run2MCcalib,light,DL1r,FixedCutBEff_85,AntiKtVR30Rmax4Rmin02TrackJets){
	bin(20.0<pt<50.0,0<abseta<2.5)
	{
		central_value(1.00,0.005)
		sys(TRK_RES_Z0_MEAS,1.16%)
		sys(TRK_RES_D0_MEAS,3.03%)
	}
	bin(50.0<pt<100.0,0<abseta<2.5)
	{
		central_value(1.00,0.005)
		sys(TRK_RES_Z0_MEAS,1.00%)
		sys(TRK_RES_D0_MEAS,3.18%)
	}
	bin(100.0<pt<150.0,0<abseta<2.5)
	{
		central_value(1.00,0.005)
		sys(TRK_RES_Z0_MEAS,0.63%)
		sys(TRK_RES_D0_MEAS,1.61%)
	}
	bin(150.0<pt<300.0,0<abseta<2.5)
	{
		central_value(1.00,0.003)
		sys(TRK_RES_Z0_MEAS,0.53%)
		sys(TRK_RES_D0_MEAS,1.79%)
	}
	bin(300.0<pt<500.0,0<abseta<2.5)
	{
		central_value(1.00,0.003)
		sys(TRK_RES_Z0_MEAS,0.62%)
		sys(TRK_RES_D0_MEAS,1.73%)
	}
	bin(500.0<pt<800.0,0<abseta<2.5)
	{
		central_value(1.00,0.003)
		sys(TRK_RES_Z0_MEAS,0.34%)
		sys(TRK_RES_D0_MEAS,2.19%)
	}
	bin(800.0<pt<1200.0,0<abseta<2.5)
	{
		central_value(1.00,0.005)
		sys(TRK_RES_Z0_MEAS,0.78%)
		sys(TRK_RES_D0_MEAS,1.97%)
	}
	bin(1200.0<pt<2000.0,0<abseta<2.5)
	{
		central_value(1.00,0.006)
		sys(TRK_RES_Z0_MEAS,0.34%)
		sys(TRK_RES_D0_MEAS,1.50%)
	}
	bin(2000.0<pt<3000.0,0<abseta<2.5)
	{
		central_value(1.00,0.011)
		sys(TRK_RES_Z0_MEAS,0.25%)
		sys(TRK_RES_D0_MEAS,1.13%)
	}
}
