Analysis(Run2MCcalib,light,DL1r,FixedCutBEff_85,AntiKtVR30Rmax4Rmin02TrackJets){
	bin(20.0<pt<50.0,0<abseta<2.5)
	{
		central_value(1.00,0.006)
		sys(MC_FSR,1.38%)
	}
	bin(50.0<pt<100.0,0<abseta<2.5)
	{
		central_value(1.00,0.005)
		sys(MC_FSR,0.07%)
	}
	bin(100.0<pt<150.0,0<abseta<2.5)
	{
		central_value(1.00,0.005)
		sys(MC_FSR,1.04%)
	}
	bin(150.0<pt<300.0,0<abseta<2.5)
	{
		central_value(1.00,0.004)
		sys(MC_FSR,4.61%)
	}
	bin(300.0<pt<500.0,0<abseta<2.5)
	{
		central_value(1.00,0.003)
		sys(MC_FSR,2.47%)
	}
	bin(500.0<pt<800.0,0<abseta<2.5)
	{
		central_value(1.00,0.004)
		sys(MC_FSR,1.85%)
	}
	bin(800.0<pt<1200.0,0<abseta<2.5)
	{
		central_value(1.00,0.005)
		sys(MC_FSR,3.10%)
	}
	bin(1200.0<pt<2000.0,0<abseta<2.5)
	{
		central_value(1.00,0.007)
		sys(MC_FSR,3.41%)
	}
	bin(2000.0<pt<3000.0,0<abseta<2.5)
	{
		central_value(1.00,0.011)
		sys(MC_FSR,5.18%)
	}
}
