Analysis(Run2MCcalib,light,DL1r,FixedCutBEff_70,AntiKtVR30Rmax4Rmin02TrackJets){
	bin(300.0<pt<500.0,0<abseta<2.5)
	{
		central_value(1.00,0.010)
		sys(TRK_RES_Z0_DEAD,-1.98%)
		sys(MC_FRAG,8.65%)
		sys(TRK_BIAS_Z0_WM,0.54%)
		sys(TRK_BIAS_D0_WM,0.95%)
		sys(TRK_RES_D0_DEAD,-0.17%)
		sys(TRK_RES_D0_MEAS,0.64%)
		sys(TRK_RES_Z0_MEAS,0.82%)
		sys(TRK_FAKE_RATE_LOOSE,2.15%)
		sys(MC_FSR,1.65%)
		sys(TRK_EFF_LOOSE_TIDE,-0.04%)
		sys(TRK_EFF_LOOSE_GLOBAL,-0.46%)
		sys(TRK_EFF_LOOSE_PP0,-0.30%)
		sys(TRK_EFF_LOOSE_PHYSMODEL,-0.06%)
		sys(TRK_BIAS_QOVERP_SAGITTA_WM,0.41%)
		sys(TRK_FAKE_RATE_LOOSE_TIDE,3.31%)
		sys(TRK_EFF_LOOSE_IBL,-0.20%)
	}
	bin(500.0<pt<800.0,0<abseta<2.5)
	{
		central_value(1.00,0.010)
		sys(TRK_RES_Z0_DEAD,-1.78%)
		sys(MC_FRAG,13.98%)
		sys(TRK_BIAS_Z0_WM,-0.07%)
		sys(TRK_BIAS_D0_WM,0.16%)
		sys(TRK_RES_D0_DEAD,-0.41%)
		sys(TRK_RES_D0_MEAS,0.01%)
		sys(TRK_RES_Z0_MEAS,1.71%)
		sys(TRK_FAKE_RATE_LOOSE,3.72%)
		sys(MC_FSR,12.72%)
		sys(TRK_EFF_LOOSE_TIDE,0.09%)
		sys(TRK_EFF_LOOSE_GLOBAL,-1.16%)
		sys(TRK_EFF_LOOSE_PP0,-0.37%)
		sys(TRK_EFF_LOOSE_PHYSMODEL,-0.60%)
		sys(TRK_BIAS_QOVERP_SAGITTA_WM,0.21%)
		sys(TRK_FAKE_RATE_LOOSE_TIDE,7.54%)
		sys(TRK_EFF_LOOSE_IBL,-0.83%)
	}
	bin(800.0<pt<1200.0,0<abseta<2.5)
	{
		central_value(1.00,0.015)
		sys(TRK_RES_Z0_DEAD,-1.85%)
		sys(MC_FRAG,15.07%)
		sys(TRK_BIAS_Z0_WM,0.26%)
		sys(TRK_BIAS_D0_WM,0.09%)
		sys(TRK_RES_D0_DEAD,0.12%)
		sys(TRK_RES_D0_MEAS,-0.16%)
		sys(TRK_RES_Z0_MEAS,0.18%)
		sys(TRK_FAKE_RATE_LOOSE,4.75%)
		sys(MC_FSR,6.23%)
		sys(TRK_EFF_LOOSE_TIDE,0.07%)
		sys(TRK_EFF_LOOSE_GLOBAL,-0.48%)
		sys(TRK_EFF_LOOSE_PP0,-0.32%)
		sys(TRK_EFF_LOOSE_PHYSMODEL,-0.21%)
		sys(TRK_BIAS_QOVERP_SAGITTA_WM,0.70%)
		sys(TRK_FAKE_RATE_LOOSE_TIDE,8.03%)
		sys(TRK_EFF_LOOSE_IBL,-0.48%)
	}
}
