Analysis(Run2MCcalib,charm,DL1r,FixedCutBEff_85,AntiKtVR30Rmax4Rmin02TrackJets){
	bin(10.0<pt<20.0,0<abseta<2.5)
	{
		central_value(1.00,0.000)
		sys(MC_FRAG,0.00%)
	}
	bin(20.0<pt<40.0,0<abseta<2.5)
	{
		central_value(1.00,0.004)
		sys(MC_FRAG,1.28%)
	}
	bin(40.0<pt<65.0,0<abseta<2.5)
	{
		central_value(1.00,0.005)
		sys(MC_FRAG,1.23%)
	}
	bin(65.0<pt<90.0,0<abseta<2.5)
	{
		central_value(1.00,0.005)
		sys(MC_FRAG,3.70%)
	}
	bin(90.0<pt<115.0,0<abseta<2.5)
	{
		central_value(1.00,0.005)
		sys(MC_FRAG,2.96%)
	}
	bin(115.0<pt<140.0,0<abseta<2.5)
	{
		central_value(1.00,0.005)
		sys(MC_FRAG,4.17%)
	}
	bin(140.0<pt<250.0,0<abseta<2.5)
	{
		central_value(1.00,0.003)
		sys(MC_FRAG,0.12%)
	}
	bin(250.0<pt<400.0,0<abseta<2.5)
	{
		central_value(1.00,0.003)
		sys(MC_FRAG,1.90%)
	}
	bin(400.0<pt<650.0,0<abseta<2.5)
	{
		central_value(1.00,0.003)
		sys(MC_FRAG,5.02%)
	}
	bin(650.0<pt<1000.0,0<abseta<2.5)
	{
		central_value(1.00,0.004)
		sys(MC_FRAG,7.84%)
	}
}
