Analysis(Run2MCcalib,light,DL1r,FixedCutBEff_100,AntiKtVR30Rmax4Rmin02TrackJets){
	bin(20.0<pt<50.0,0<abseta<2.5)
	{
		central_value(1.00,0.000)
		sys(TRK_RES_Z0_MEAS,0.04%)
		sys(TRK_RES_D0_MEAS,0.10%)
	}
	bin(50.0<pt<100.0,0<abseta<2.5)
	{
		central_value(1.00,0.000)
		sys(TRK_RES_Z0_MEAS,0.03%)
		sys(TRK_RES_D0_MEAS,0.10%)
	}
	bin(100.0<pt<150.0,0<abseta<2.5)
	{
		central_value(1.00,0.000)
		sys(TRK_RES_Z0_MEAS,0.03%)
		sys(TRK_RES_D0_MEAS,0.07%)
	}
	bin(150.0<pt<300.0,0<abseta<2.5)
	{
		central_value(1.00,0.000)
		sys(TRK_RES_Z0_MEAS,0.02%)
		sys(TRK_RES_D0_MEAS,0.08%)
	}
	bin(300.0<pt<500.0,0<abseta<2.5)
	{
		central_value(1.00,0.000)
		sys(TRK_RES_Z0_MEAS,0.03%)
		sys(TRK_RES_D0_MEAS,0.11%)
	}
	bin(500.0<pt<800.0,0<abseta<2.5)
	{
		central_value(1.00,0.000)
		sys(TRK_RES_Z0_MEAS,0.02%)
		sys(TRK_RES_D0_MEAS,0.15%)
	}
	bin(800.0<pt<1200.0,0<abseta<2.5)
	{
		central_value(1.00,0.000)
		sys(TRK_RES_Z0_MEAS,0.03%)
		sys(TRK_RES_D0_MEAS,0.13%)
	}
	bin(1200.0<pt<2000.0,0<abseta<2.5)
	{
		central_value(1.00,0.000)
		sys(TRK_RES_Z0_MEAS,0.02%)
		sys(TRK_RES_D0_MEAS,0.10%)
	}
	bin(2000.0<pt<3000.0,0<abseta<2.5)
	{
		central_value(1.00,0.001)
		sys(TRK_RES_Z0_MEAS,0.01%)
		sys(TRK_RES_D0_MEAS,0.07%)
	}
}
