Analysis(Run2MCcalib,light,DL1r,FixedCutBEff_100,AntiKtVR30Rmax4Rmin02TrackJets){
	bin(20.0<pt<50.0,0<abseta<2.5)
	{
		central_value(1.00,0.000)
		sys(MC_FSR,0.01%)
	}
	bin(50.0<pt<100.0,0<abseta<2.5)
	{
		central_value(1.00,0.000)
		sys(MC_FSR,0.02%)
	}
	bin(100.0<pt<150.0,0<abseta<2.5)
	{
		central_value(1.00,0.000)
		sys(MC_FSR,0.03%)
	}
	bin(150.0<pt<300.0,0<abseta<2.5)
	{
		central_value(1.00,0.000)
		sys(MC_FSR,0.11%)
	}
	bin(300.0<pt<500.0,0<abseta<2.5)
	{
		central_value(1.00,0.000)
		sys(MC_FSR,0.13%)
	}
	bin(500.0<pt<800.0,0<abseta<2.5)
	{
		central_value(1.00,0.000)
		sys(MC_FSR,0.14%)
	}
	bin(800.0<pt<1200.0,0<abseta<2.5)
	{
		central_value(1.00,0.000)
		sys(MC_FSR,0.21%)
	}
	bin(1200.0<pt<2000.0,0<abseta<2.5)
	{
		central_value(1.00,0.000)
		sys(MC_FSR,0.22%)
	}
	bin(2000.0<pt<3000.0,0<abseta<2.5)
	{
		central_value(1.00,0.001)
		sys(MC_FSR,0.19%)
	}
}
