Analysis(Run2MCcalib,charm,DL1r,FixedCutBEff_60,AntiKtVR30Rmax4Rmin02TrackJets){
	bin(10.0<pt<20.0,0<abseta<2.5)
	{
		central_value(1.00,0.000)
		sys(TRK_RES_Z0_DEAD,0.00%)
		sys(MC_FRAG,0.00%)
		sys(TRK_BIAS_Z0_WM,0.00%)
		sys(TRK_BIAS_D0_WM,0.00%)
		sys(TRK_RES_D0_DEAD,0.00%)
		sys(TRK_RES_D0_MEAS,0.00%)
		sys(TRK_RES_Z0_MEAS,0.00%)
		sys(TRK_FAKE_RATE_LOOSE,0.00%)
		sys(MC_FSR,0.00%)
		sys(TRK_EFF_LOOSE_TIDE,0.00%)
		sys(TRK_EFF_LOOSE_GLOBAL,0.00%)
		sys(TRK_EFF_LOOSE_PP0,0.00%)
		sys(TRK_EFF_LOOSE_PHYSMODEL,0.00%)
		sys(TRK_BIAS_QOVERP_SAGITTA_WM,0.00%)
		sys(TRK_FAKE_RATE_LOOSE_TIDE,0.00%)
		sys(TRK_EFF_LOOSE_IBL,0.00%)
	}
	bin(20.0<pt<40.0,0<abseta<2.5)
	{
		central_value(1.00,0.010)
		sys(TRK_RES_Z0_DEAD,0.10%)
		sys(MC_FRAG,9.55%)
		sys(TRK_BIAS_Z0_WM,0.03%)
		sys(TRK_BIAS_D0_WM,0.81%)
		sys(TRK_RES_D0_DEAD,0.17%)
		sys(TRK_RES_D0_MEAS,0.81%)
		sys(TRK_RES_Z0_MEAS,0.55%)
		sys(TRK_FAKE_RATE_LOOSE,1.30%)
		sys(MC_FSR,0.70%)
		sys(TRK_EFF_LOOSE_TIDE,0.03%)
		sys(TRK_EFF_LOOSE_GLOBAL,0.71%)
		sys(TRK_EFF_LOOSE_PP0,0.31%)
		sys(TRK_EFF_LOOSE_PHYSMODEL,0.47%)
		sys(TRK_BIAS_QOVERP_SAGITTA_WM,0.78%)
		sys(TRK_FAKE_RATE_LOOSE_TIDE,1.99%)
		sys(TRK_EFF_LOOSE_IBL,0.40%)
	}
	bin(40.0<pt<65.0,0<abseta<2.5)
	{
		central_value(1.00,0.011)
		sys(TRK_RES_Z0_DEAD,0.49%)
		sys(MC_FRAG,16.37%)
		sys(TRK_BIAS_Z0_WM,0.12%)
		sys(TRK_BIAS_D0_WM,0.85%)
		sys(TRK_RES_D0_DEAD,1.05%)
		sys(TRK_RES_D0_MEAS,1.43%)
		sys(TRK_RES_Z0_MEAS,0.87%)
		sys(TRK_FAKE_RATE_LOOSE,1.48%)
		sys(MC_FSR,0.35%)
		sys(TRK_EFF_LOOSE_TIDE,0.13%)
		sys(TRK_EFF_LOOSE_GLOBAL,0.53%)
		sys(TRK_EFF_LOOSE_PP0,0.22%)
		sys(TRK_EFF_LOOSE_PHYSMODEL,0.50%)
		sys(TRK_BIAS_QOVERP_SAGITTA_WM,0.22%)
		sys(TRK_FAKE_RATE_LOOSE_TIDE,2.79%)
		sys(TRK_EFF_LOOSE_IBL,0.28%)
	}
	bin(65.0<pt<90.0,0<abseta<2.5)
	{
		central_value(1.00,0.012)
		sys(TRK_RES_Z0_DEAD,0.94%)
		sys(MC_FRAG,10.01%)
		sys(TRK_BIAS_Z0_WM,1.13%)
		sys(TRK_BIAS_D0_WM,0.18%)
		sys(TRK_RES_D0_DEAD,0.26%)
		sys(TRK_RES_D0_MEAS,0.98%)
		sys(TRK_RES_Z0_MEAS,0.98%)
		sys(TRK_FAKE_RATE_LOOSE,2.41%)
		sys(MC_FSR,1.93%)
		sys(TRK_EFF_LOOSE_TIDE,0.42%)
		sys(TRK_EFF_LOOSE_GLOBAL,0.46%)
		sys(TRK_EFF_LOOSE_PP0,0.11%)
		sys(TRK_EFF_LOOSE_PHYSMODEL,0.26%)
		sys(TRK_BIAS_QOVERP_SAGITTA_WM,0.25%)
		sys(TRK_FAKE_RATE_LOOSE_TIDE,5.38%)
		sys(TRK_EFF_LOOSE_IBL,0.44%)
	}
	bin(90.0<pt<115.0,0<abseta<2.5)
	{
		central_value(1.00,0.013)
		sys(TRK_RES_Z0_DEAD,0.75%)
		sys(MC_FRAG,10.51%)
		sys(TRK_BIAS_Z0_WM,0.62%)
		sys(TRK_BIAS_D0_WM,0.85%)
		sys(TRK_RES_D0_DEAD,0.69%)
		sys(TRK_RES_D0_MEAS,0.78%)
		sys(TRK_RES_Z0_MEAS,0.62%)
		sys(TRK_FAKE_RATE_LOOSE,3.11%)
		sys(MC_FSR,0.36%)
		sys(TRK_EFF_LOOSE_TIDE,0.13%)
		sys(TRK_EFF_LOOSE_GLOBAL,0.73%)
		sys(TRK_EFF_LOOSE_PP0,0.08%)
		sys(TRK_EFF_LOOSE_PHYSMODEL,0.62%)
		sys(TRK_BIAS_QOVERP_SAGITTA_WM,0.76%)
		sys(TRK_FAKE_RATE_LOOSE_TIDE,8.27%)
		sys(TRK_EFF_LOOSE_IBL,0.81%)
	}
	bin(115.0<pt<140.0,0<abseta<2.5)
	{
		central_value(1.00,0.014)
		sys(TRK_RES_Z0_DEAD,0.75%)
		sys(MC_FRAG,-1.25%)
		sys(TRK_BIAS_Z0_WM,0.48%)
		sys(TRK_BIAS_D0_WM,0.17%)
		sys(TRK_RES_D0_DEAD,0.80%)
		sys(TRK_RES_D0_MEAS,1.76%)
		sys(TRK_RES_Z0_MEAS,1.24%)
		sys(TRK_FAKE_RATE_LOOSE,2.52%)
		sys(MC_FSR,4.89%)
		sys(TRK_EFF_LOOSE_TIDE,0.16%)
		sys(TRK_EFF_LOOSE_GLOBAL,0.41%)
		sys(TRK_EFF_LOOSE_PP0,0.10%)
		sys(TRK_EFF_LOOSE_PHYSMODEL,0.19%)
		sys(TRK_BIAS_QOVERP_SAGITTA_WM,0.06%)
		sys(TRK_FAKE_RATE_LOOSE_TIDE,5.10%)
		sys(TRK_EFF_LOOSE_IBL,0.82%)
	}
	bin(140.0<pt<250.0,0<abseta<2.5)
	{
		central_value(1.00,0.008)
		sys(TRK_RES_Z0_DEAD,0.24%)
		sys(MC_FRAG,-6.17%)
		sys(TRK_BIAS_Z0_WM,0.34%)
		sys(TRK_BIAS_D0_WM,0.10%)
		sys(TRK_RES_D0_DEAD,0.52%)
		sys(TRK_RES_D0_MEAS,1.08%)
		sys(TRK_RES_Z0_MEAS,0.49%)
		sys(TRK_FAKE_RATE_LOOSE,2.87%)
		sys(MC_FSR,3.16%)
		sys(TRK_EFF_LOOSE_TIDE,0.10%)
		sys(TRK_EFF_LOOSE_GLOBAL,0.59%)
		sys(TRK_EFF_LOOSE_PP0,0.14%)
		sys(TRK_EFF_LOOSE_PHYSMODEL,0.48%)
		sys(TRK_BIAS_QOVERP_SAGITTA_WM,0.02%)
		sys(TRK_FAKE_RATE_LOOSE_TIDE,6.35%)
		sys(TRK_EFF_LOOSE_IBL,0.58%)
	}
	bin(250.0<pt<400.0,0<abseta<2.5)
	{
		central_value(1.00,0.009)
		sys(TRK_RES_Z0_DEAD,0.39%)
		sys(MC_FRAG,-11.44%)
		sys(TRK_BIAS_Z0_WM,0.61%)
		sys(TRK_BIAS_D0_WM,0.52%)
		sys(TRK_RES_D0_DEAD,0.22%)
		sys(TRK_RES_D0_MEAS,1.23%)
		sys(TRK_RES_Z0_MEAS,0.64%)
		sys(TRK_FAKE_RATE_LOOSE,2.92%)
		sys(MC_FSR,4.77%)
		sys(TRK_EFF_LOOSE_TIDE,0.18%)
		sys(TRK_EFF_LOOSE_GLOBAL,0.66%)
		sys(TRK_EFF_LOOSE_PP0,0.00%)
		sys(TRK_EFF_LOOSE_PHYSMODEL,0.38%)
		sys(TRK_BIAS_QOVERP_SAGITTA_WM,0.26%)
		sys(TRK_FAKE_RATE_LOOSE_TIDE,6.41%)
		sys(TRK_EFF_LOOSE_IBL,0.50%)
	}
	bin(400.0<pt<650.0,0<abseta<2.5)
	{
		central_value(1.00,0.009)
		sys(TRK_RES_Z0_DEAD,0.17%)
		sys(MC_FRAG,-5.24%)
		sys(TRK_BIAS_Z0_WM,1.46%)
		sys(TRK_BIAS_D0_WM,1.48%)
		sys(TRK_RES_D0_DEAD,0.52%)
		sys(TRK_RES_D0_MEAS,1.33%)
		sys(TRK_RES_Z0_MEAS,0.34%)
		sys(TRK_FAKE_RATE_LOOSE,3.90%)
		sys(MC_FSR,3.67%)
		sys(TRK_EFF_LOOSE_TIDE,0.04%)
		sys(TRK_EFF_LOOSE_GLOBAL,0.42%)
		sys(TRK_EFF_LOOSE_PP0,0.10%)
		sys(TRK_EFF_LOOSE_PHYSMODEL,0.34%)
		sys(TRK_BIAS_QOVERP_SAGITTA_WM,0.02%)
		sys(TRK_FAKE_RATE_LOOSE_TIDE,8.36%)
		sys(TRK_EFF_LOOSE_IBL,0.39%)
	}
	bin(650.0<pt<1000.0,0<abseta<2.5)
	{
		central_value(1.00,0.016)
		sys(TRK_RES_Z0_DEAD,0.67%)
		sys(MC_FRAG,-2.30%)
		sys(TRK_BIAS_Z0_WM,0.23%)
		sys(TRK_BIAS_D0_WM,1.46%)
		sys(TRK_RES_D0_DEAD,1.02%)
		sys(TRK_RES_D0_MEAS,1.26%)
		sys(TRK_RES_Z0_MEAS,1.16%)
		sys(TRK_FAKE_RATE_LOOSE,4.70%)
		sys(MC_FSR,5.83%)
		sys(TRK_EFF_LOOSE_TIDE,0.20%)
		sys(TRK_EFF_LOOSE_GLOBAL,0.32%)
		sys(TRK_EFF_LOOSE_PP0,0.01%)
		sys(TRK_EFF_LOOSE_PHYSMODEL,0.04%)
		sys(TRK_BIAS_QOVERP_SAGITTA_WM,0.48%)
		sys(TRK_FAKE_RATE_LOOSE_TIDE,11.02%)
		sys(TRK_EFF_LOOSE_IBL,0.24%)
	}
}
