Analysis(Run2MCcalib,charm,DL1r,FixedCutBEff_100,AntiKtVR30Rmax4Rmin02TrackJets){
	bin(10.0<pt<20.0,0<abseta<2.5)
	{
		central_value(1.00,0.000)
		sys(TRK_RES_Z0_MEAS,-0.14%)
		sys(TRK_RES_D0_MEAS,-0.30%)
	}
	bin(20.0<pt<40.0,0<abseta<2.5)
	{
		central_value(1.00,0.001)
		sys(TRK_RES_Z0_MEAS,-0.02%)
		sys(TRK_RES_D0_MEAS,-0.05%)
	}
	bin(40.0<pt<65.0,0<abseta<2.5)
	{
		central_value(1.00,0.001)
		sys(TRK_RES_Z0_MEAS,-0.01%)
		sys(TRK_RES_D0_MEAS,0.02%)
	}
	bin(65.0<pt<140.0,0<abseta<2.5)
	{
		central_value(1.00,0.001)
		sys(TRK_RES_Z0_MEAS,0.00%)
		sys(TRK_RES_D0_MEAS,0.00%)
	}
	bin(140.0<pt<250.0,0<abseta<2.5)
	{
		central_value(1.00,0.001)
		sys(TRK_RES_Z0_MEAS,-0.05%)
		sys(TRK_RES_D0_MEAS,-0.09%)
	}
	bin(250.0<pt<400.0,0<abseta<2.5)
	{
		central_value(1.00,0.000)
		sys(TRK_RES_Z0_MEAS,-0.07%)
		sys(TRK_RES_D0_MEAS,-0.08%)
	}
	bin(400.0<pt<650.0,0<abseta<2.5)
	{
		central_value(1.00,0.000)
		sys(TRK_RES_Z0_MEAS,-0.11%)
		sys(TRK_RES_D0_MEAS,-0.05%)
	}
	bin(650.0<pt<1000.0,0<abseta<2.5)
	{
		central_value(1.00,0.001)
		sys(TRK_RES_Z0_MEAS,-0.10%)
		sys(TRK_RES_D0_MEAS,-0.09%)
	}
}
