Analysis(Run2MCcalib,charm,DL1r,FixedCutBEff_100,AntiKtVR30Rmax4Rmin02TrackJets){
	bin(10.0<pt<20.0,0<abseta<2.5)
	{
		central_value(1.00,0.000)
		sys(MC_FRAG,2.05%)
	}
	bin(20.0<pt<40.0,0<abseta<2.5)
	{
		central_value(1.00,0.001)
		sys(MC_FRAG,0.45%)
	}
	bin(40.0<pt<65.0,0<abseta<2.5)
	{
		central_value(1.00,0.002)
		sys(MC_FRAG,-0.25%)
	}
	bin(65.0<pt<140.0,0<abseta<2.5)
	{
		central_value(1.00,0.001)
		sys(MC_FRAG,0.00%)
	}
	bin(140.0<pt<250.0,0<abseta<2.5)
	{
		central_value(1.00,0.001)
		sys(MC_FRAG,2.48%)
	}
	bin(250.0<pt<400.0,0<abseta<2.5)
	{
		central_value(1.00,0.000)
		sys(MC_FRAG,2.15%)
	}
	bin(400.0<pt<650.0,0<abseta<2.5)
	{
		central_value(1.00,0.000)
		sys(MC_FRAG,1.49%)
	}
	bin(650.0<pt<1000.0,0<abseta<2.5)
	{
		central_value(1.00,0.000)
		sys(MC_FRAG,0.92%)
	}
}
