Analysis(Run2MCcalib,bottom,DL1r,FixedCutBEff_85,AntiKtVR30Rmax4Rmin02TrackJets){
	bin(20.0<pt<60.0,0<abseta<2.5)
	{
		central_value(1.00,0.006)
		sys(TRK_EFF_LOOSE_PHYSMODEL,0.43%)
		sys(TRK_BIAS_Z0_WM,0.04%)
		sys(TRK_BIAS_D0_WM,0.21%)
		sys(TRK_RES_D0_DEAD,0.28%)
		sys(TRK_FAKE_RATE_LOOSE,0.22%)
		sys(TRK_EFF_LOOSE_TIDE,0.04%)
		sys(TRK_EFF_LOOSE_GLOBAL,0.70%)
		sys(TRK_EFF_LOOSE_PP0,0.25%)
		sys(TRK_RES_Z0_DEAD,0.07%)
		sys(TRK_BIAS_QOVERP_SAGITTA_WM,0.07%)
		sys(TRK_FAKE_RATE_LOOSE_TIDE,0.75%)
		sys(TRK_EFF_LOOSE_IBL,0.33%)
	}
	bin(60.0<pt<100.0,0<abseta<2.5)
	{
		central_value(1.00,0.005)
		sys(TRK_EFF_LOOSE_PHYSMODEL,0.43%)
		sys(TRK_BIAS_Z0_WM,0.53%)
		sys(TRK_BIAS_D0_WM,0.13%)
		sys(TRK_RES_D0_DEAD,0.42%)
		sys(TRK_FAKE_RATE_LOOSE,0.02%)
		sys(TRK_EFF_LOOSE_TIDE,0.06%)
		sys(TRK_EFF_LOOSE_GLOBAL,0.59%)
		sys(TRK_EFF_LOOSE_PP0,0.16%)
		sys(TRK_RES_Z0_DEAD,0.34%)
		sys(TRK_BIAS_QOVERP_SAGITTA_WM,0.09%)
		sys(TRK_FAKE_RATE_LOOSE_TIDE,0.03%)
		sys(TRK_EFF_LOOSE_IBL,0.49%)
	}
	bin(100.0<pt<250.0,0<abseta<2.5)
	{
		central_value(1.00,0.002)
		sys(TRK_EFF_LOOSE_PHYSMODEL,0.26%)
		sys(TRK_BIAS_Z0_WM,0.15%)
		sys(TRK_BIAS_D0_WM,0.12%)
		sys(TRK_RES_D0_DEAD,0.28%)
		sys(TRK_FAKE_RATE_LOOSE,1.13%)
		sys(TRK_EFF_LOOSE_TIDE,0.01%)
		sys(TRK_EFF_LOOSE_GLOBAL,0.33%)
		sys(TRK_EFF_LOOSE_PP0,0.09%)
		sys(TRK_RES_Z0_DEAD,0.06%)
		sys(TRK_BIAS_QOVERP_SAGITTA_WM,0.01%)
		sys(TRK_FAKE_RATE_LOOSE_TIDE,2.67%)
		sys(TRK_EFF_LOOSE_IBL,0.31%)
	}
	bin(250.0<pt<400.0,0<abseta<2.5)
	{
		central_value(1.00,0.002)
		sys(TRK_EFF_LOOSE_PHYSMODEL,0.15%)
		sys(TRK_BIAS_Z0_WM,0.15%)
		sys(TRK_BIAS_D0_WM,0.05%)
		sys(TRK_RES_D0_DEAD,0.07%)
		sys(TRK_FAKE_RATE_LOOSE,1.69%)
		sys(TRK_EFF_LOOSE_TIDE,0.02%)
		sys(TRK_EFF_LOOSE_GLOBAL,0.27%)
		sys(TRK_EFF_LOOSE_PP0,0.03%)
		sys(TRK_RES_Z0_DEAD,0.24%)
		sys(TRK_BIAS_QOVERP_SAGITTA_WM,0.02%)
		sys(TRK_FAKE_RATE_LOOSE_TIDE,3.67%)
		sys(TRK_EFF_LOOSE_IBL,0.21%)
	}
	bin(400.0<pt<500.0,0<abseta<2.5)
	{
		central_value(1.00,0.004)
		sys(TRK_EFF_LOOSE_PHYSMODEL,0.14%)
		sys(TRK_BIAS_Z0_WM,0.15%)
		sys(TRK_BIAS_D0_WM,0.19%)
		sys(TRK_RES_D0_DEAD,0.07%)
		sys(TRK_FAKE_RATE_LOOSE,1.46%)
		sys(TRK_EFF_LOOSE_TIDE,0.03%)
		sys(TRK_EFF_LOOSE_GLOBAL,0.16%)
		sys(TRK_EFF_LOOSE_PP0,0.00%)
		sys(TRK_RES_Z0_DEAD,0.01%)
		sys(TRK_BIAS_QOVERP_SAGITTA_WM,0.37%)
		sys(TRK_FAKE_RATE_LOOSE_TIDE,3.64%)
		sys(TRK_EFF_LOOSE_IBL,0.27%)
	}
	bin(500.0<pt<700.0,0<abseta<2.5)
	{
		central_value(1.00,0.003)
		sys(TRK_EFF_LOOSE_PHYSMODEL,0.04%)
		sys(TRK_BIAS_Z0_WM,0.19%)
		sys(TRK_BIAS_D0_WM,0.45%)
		sys(TRK_RES_D0_DEAD,0.32%)
		sys(TRK_FAKE_RATE_LOOSE,1.54%)
		sys(TRK_EFF_LOOSE_TIDE,0.00%)
		sys(TRK_EFF_LOOSE_GLOBAL,0.15%)
		sys(TRK_EFF_LOOSE_PP0,0.01%)
		sys(TRK_RES_Z0_DEAD,0.25%)
		sys(TRK_BIAS_QOVERP_SAGITTA_WM,0.17%)
		sys(TRK_FAKE_RATE_LOOSE_TIDE,3.75%)
		sys(TRK_EFF_LOOSE_IBL,0.18%)
	}
	bin(700.0<pt<900.0,0<abseta<2.5)
	{
		central_value(1.00,0.004)
		sys(TRK_EFF_LOOSE_PHYSMODEL,0.19%)
		sys(TRK_BIAS_Z0_WM,0.48%)
		sys(TRK_BIAS_D0_WM,0.58%)
		sys(TRK_RES_D0_DEAD,0.45%)
		sys(TRK_FAKE_RATE_LOOSE,1.42%)
		sys(TRK_EFF_LOOSE_TIDE,0.07%)
		sys(TRK_EFF_LOOSE_GLOBAL,0.21%)
		sys(TRK_EFF_LOOSE_PP0,0.01%)
		sys(TRK_RES_Z0_DEAD,0.20%)
		sys(TRK_BIAS_QOVERP_SAGITTA_WM,0.23%)
		sys(TRK_FAKE_RATE_LOOSE_TIDE,3.05%)
		sys(TRK_EFF_LOOSE_IBL,0.20%)
	}
	bin(900.0<pt<1000.0,0<abseta<2.5)
	{
		central_value(1.00,0.006)
		sys(TRK_EFF_LOOSE_PHYSMODEL,0.04%)
		sys(TRK_BIAS_Z0_WM,0.65%)
		sys(TRK_BIAS_D0_WM,0.43%)
		sys(TRK_RES_D0_DEAD,0.26%)
		sys(TRK_FAKE_RATE_LOOSE,1.11%)
		sys(TRK_EFF_LOOSE_TIDE,0.10%)
		sys(TRK_EFF_LOOSE_GLOBAL,0.10%)
		sys(TRK_EFF_LOOSE_PP0,0.01%)
		sys(TRK_RES_Z0_DEAD,0.42%)
		sys(TRK_BIAS_QOVERP_SAGITTA_WM,0.40%)
		sys(TRK_FAKE_RATE_LOOSE_TIDE,4.59%)
		sys(TRK_EFF_LOOSE_IBL,0.14%)
	}
}
