Analysis(Run2MCcalib,bottom,DL1r,FixedCutBEff_77,AntiKtVR30Rmax4Rmin02TrackJets){
	bin(20.0<pt<60.0,0<abseta<2.5)
	{
		central_value(1.00,0.007)
		sys(MC_FSR,4.58%)
	}
	bin(60.0<pt<100.0,0<abseta<2.5)
	{
		central_value(1.00,0.007)
		sys(MC_FSR,1.86%)
	}
	bin(100.0<pt<250.0,0<abseta<2.5)
	{
		central_value(1.00,0.003)
		sys(MC_FSR,1.03%)
	}
	bin(250.0<pt<400.0,0<abseta<2.5)
	{
		central_value(1.00,0.004)
		sys(MC_FSR,1.07%)
	}
	bin(400.0<pt<500.0,0<abseta<2.5)
	{
		central_value(1.00,0.005)
		sys(MC_FSR,5.61%)
	}
	bin(500.0<pt<700.0,0<abseta<2.5)
	{
		central_value(1.00,0.004)
		sys(MC_FSR,0.46%)
	}
	bin(700.0<pt<900.0,0<abseta<2.5)
	{
		central_value(1.00,0.006)
		sys(MC_FSR,0.72%)
	}
	bin(900.0<pt<1000.0,0<abseta<2.5)
	{
		central_value(1.00,0.009)
		sys(MC_FSR,3.28%)
	}
}
