Analysis(Run2MCcalib,charm,DL1r,FixedCutBEff_77,AntiKtVR30Rmax4Rmin02TrackJets){
	bin(10.0<pt<20.0,0<abseta<2.5)
	{
		central_value(1.00,0.000)
		sys(MC_FRAG,-4.51%)
	}
	bin(20.0<pt<40.0,0<abseta<2.5)
	{
		central_value(1.00,0.006)
		sys(MC_FRAG,-2.66%)
	}
	bin(40.0<pt<65.0,0<abseta<2.5)
	{
		central_value(1.00,0.007)
		sys(MC_FRAG,-0.28%)
	}
	bin(65.0<pt<140.0,0<abseta<2.5)
	{
		central_value(1.00,0.005)
		sys(MC_FRAG,0.00%)
	}
	bin(140.0<pt<250.0,0<abseta<2.5)
	{
		central_value(1.00,0.005)
		sys(MC_FRAG,-7.72%)
	}
	bin(250.0<pt<400.0,0<abseta<2.5)
	{
		central_value(1.00,0.005)
		sys(MC_FRAG,-6.29%)
	}
	bin(400.0<pt<650.0,0<abseta<2.5)
	{
		central_value(1.00,0.005)
		sys(MC_FRAG,-4.38%)
	}
	bin(650.0<pt<1000.0,0<abseta<2.5)
	{
		central_value(1.00,0.006)
		sys(MC_FRAG,-0.25%)
	}
}
