Analysis(Run2MCcalib,bottom,DL1r,FixedCutBEff_100,AntiKtVR30Rmax4Rmin02TrackJets){
	bin(20.0<pt<60.0,0<abseta<2.5)
	{
		central_value(1.00,0.003)
		sys(TRK_EFF_LOOSE_PHYSMODEL,0.32%)
		sys(MC_FRAG,7.74%)
		sys(TRK_BIAS_Z0_WM,0.03%)
		sys(TRK_BIAS_D0_WM,0.03%)
		sys(TRK_RES_D0_DEAD,0.02%)
		sys(TRK_BIAS_QOVERP_SAGITTA_WM,0.02%)
		sys(TRK_RES_D0_MEAS,0.26%)
		sys(TRK_RES_Z0_MEAS,0.07%)
		sys(TRK_FAKE_RATE_LOOSE,1.83%)
		sys(TRK_FAKE_RATE_LOOSE_TIDE,4.53%)
		sys(TRK_EFF_LOOSE_TIDE,0.07%)
		sys(TRK_EFF_LOOSE_PP0,0.09%)
		sys(TRK_RES_Z0_DEAD,0.04%)
		sys(TRK_EFF_LOOSE_GLOBAL,0.57%)
		sys(metastable_interaction,-2.79%)
		sys(MC_FSR,8.65%)
		sys(TRK_EFF_LOOSE_IBL,0.45%)
	}
	bin(60.0<pt<100.0,0<abseta<2.5)
	{
		central_value(1.00,0.002)
		sys(TRK_EFF_LOOSE_PHYSMODEL,0.25%)
		sys(MC_FRAG,-4.44%)
		sys(TRK_BIAS_Z0_WM,0.17%)
		sys(TRK_BIAS_D0_WM,0.02%)
		sys(TRK_RES_D0_DEAD,0.07%)
		sys(TRK_BIAS_QOVERP_SAGITTA_WM,0.04%)
		sys(TRK_RES_D0_MEAS,0.22%)
		sys(TRK_RES_Z0_MEAS,0.11%)
		sys(TRK_FAKE_RATE_LOOSE,2.18%)
		sys(TRK_FAKE_RATE_LOOSE_TIDE,5.49%)
		sys(TRK_EFF_LOOSE_TIDE,0.04%)
		sys(TRK_EFF_LOOSE_PP0,0.07%)
		sys(TRK_RES_Z0_DEAD,0.05%)
		sys(TRK_EFF_LOOSE_GLOBAL,0.35%)
		sys(metastable_interaction,-3.44%)
		sys(MC_FSR,8.12%)
		sys(TRK_EFF_LOOSE_IBL,0.33%)
	}
	bin(100.0<pt<250.0,0<abseta<2.5)
	{
		central_value(1.00,0.001)
		sys(TRK_EFF_LOOSE_PHYSMODEL,0.12%)
		sys(MC_FRAG,-2.69%)
		sys(TRK_BIAS_Z0_WM,0.01%)
		sys(TRK_BIAS_D0_WM,0.02%)
		sys(TRK_RES_D0_DEAD,0.02%)
		sys(TRK_BIAS_QOVERP_SAGITTA_WM,0.02%)
		sys(TRK_RES_D0_MEAS,0.13%)
		sys(TRK_RES_Z0_MEAS,0.10%)
		sys(TRK_FAKE_RATE_LOOSE,1.67%)
		sys(TRK_FAKE_RATE_LOOSE_TIDE,4.02%)
		sys(TRK_EFF_LOOSE_TIDE,0.02%)
		sys(TRK_EFF_LOOSE_PP0,0.03%)
		sys(TRK_RES_Z0_DEAD,0.01%)
		sys(TRK_EFF_LOOSE_GLOBAL,0.16%)
		sys(metastable_interaction,1.87%)
		sys(MC_FSR,2.98%)
		sys(TRK_EFF_LOOSE_IBL,0.18%)
	}
	bin(250.0<pt<400.0,0<abseta<2.5)
	{
		central_value(1.00,0.001)
		sys(TRK_EFF_LOOSE_PHYSMODEL,0.10%)
		sys(MC_FRAG,0.46%)
		sys(TRK_BIAS_Z0_WM,0.02%)
		sys(TRK_BIAS_D0_WM,0.00%)
		sys(TRK_RES_D0_DEAD,0.00%)
		sys(TRK_BIAS_QOVERP_SAGITTA_WM,0.01%)
		sys(TRK_RES_D0_MEAS,0.19%)
		sys(TRK_RES_Z0_MEAS,0.03%)
		sys(TRK_FAKE_RATE_LOOSE,1.26%)
		sys(TRK_FAKE_RATE_LOOSE_TIDE,3.00%)
		sys(TRK_EFF_LOOSE_TIDE,0.01%)
		sys(TRK_EFF_LOOSE_PP0,0.04%)
		sys(TRK_RES_Z0_DEAD,0.02%)
		sys(TRK_EFF_LOOSE_GLOBAL,0.13%)
		sys(metastable_interaction,4.70%)
		sys(MC_FSR,0.78%)
		sys(TRK_EFF_LOOSE_IBL,0.11%)
	}
	bin(400.0<pt<500.0,0<abseta<2.5)
	{
		central_value(1.00,0.002)
		sys(TRK_EFF_LOOSE_PHYSMODEL,0.07%)
		sys(MC_FRAG,1.28%)
		sys(TRK_BIAS_Z0_WM,0.04%)
		sys(TRK_BIAS_D0_WM,0.01%)
		sys(TRK_RES_D0_DEAD,0.02%)
		sys(TRK_BIAS_QOVERP_SAGITTA_WM,0.04%)
		sys(TRK_RES_D0_MEAS,0.22%)
		sys(TRK_RES_Z0_MEAS,0.06%)
		sys(TRK_FAKE_RATE_LOOSE,1.10%)
		sys(TRK_FAKE_RATE_LOOSE_TIDE,2.74%)
		sys(TRK_EFF_LOOSE_TIDE,0.02%)
		sys(TRK_EFF_LOOSE_PP0,0.03%)
		sys(TRK_RES_Z0_DEAD,0.03%)
		sys(TRK_EFF_LOOSE_GLOBAL,0.10%)
		sys(metastable_interaction,3.74%)
		sys(MC_FSR,0.17%)
		sys(TRK_EFF_LOOSE_IBL,0.05%)
	}
	bin(500.0<pt<700.0,0<abseta<2.5)
	{
		central_value(1.00,0.001)
		sys(TRK_EFF_LOOSE_PHYSMODEL,0.07%)
		sys(MC_FRAG,2.24%)
		sys(TRK_BIAS_Z0_WM,0.00%)
		sys(TRK_BIAS_D0_WM,0.09%)
		sys(TRK_RES_D0_DEAD,0.07%)
		sys(TRK_BIAS_QOVERP_SAGITTA_WM,0.03%)
		sys(TRK_RES_D0_MEAS,0.34%)
		sys(TRK_RES_Z0_MEAS,0.10%)
		sys(TRK_FAKE_RATE_LOOSE,1.00%)
		sys(TRK_FAKE_RATE_LOOSE_TIDE,2.44%)
		sys(TRK_EFF_LOOSE_TIDE,0.01%)
		sys(TRK_EFF_LOOSE_PP0,0.03%)
		sys(TRK_RES_Z0_DEAD,0.03%)
		sys(TRK_EFF_LOOSE_GLOBAL,0.07%)
		sys(metastable_interaction,5.04%)
		sys(MC_FSR,0.41%)
		sys(TRK_EFF_LOOSE_IBL,0.05%)
	}
	bin(700.0<pt<900.0,0<abseta<2.5)
	{
		central_value(1.00,0.002)
		sys(TRK_EFF_LOOSE_PHYSMODEL,0.02%)
		sys(MC_FRAG,2.93%)
		sys(TRK_BIAS_Z0_WM,0.13%)
		sys(TRK_BIAS_D0_WM,0.16%)
		sys(TRK_RES_D0_DEAD,0.13%)
		sys(TRK_BIAS_QOVERP_SAGITTA_WM,0.03%)
		sys(TRK_RES_D0_MEAS,0.30%)
		sys(TRK_RES_Z0_MEAS,0.09%)
		sys(TRK_FAKE_RATE_LOOSE,0.85%)
		sys(TRK_FAKE_RATE_LOOSE_TIDE,2.08%)
		sys(TRK_EFF_LOOSE_TIDE,0.02%)
		sys(TRK_EFF_LOOSE_PP0,0.01%)
		sys(TRK_RES_Z0_DEAD,0.04%)
		sys(TRK_EFF_LOOSE_GLOBAL,0.05%)
		sys(metastable_interaction,4.54%)
		sys(MC_FSR,1.01%)
		sys(TRK_EFF_LOOSE_IBL,0.03%)
	}
	bin(900.0<pt<1000.0,0<abseta<2.5)
	{
		central_value(1.00,0.002)
		sys(TRK_EFF_LOOSE_PHYSMODEL,0.00%)
		sys(MC_FRAG,2.49%)
		sys(TRK_BIAS_Z0_WM,0.18%)
		sys(TRK_BIAS_D0_WM,0.15%)
		sys(TRK_RES_D0_DEAD,0.05%)
		sys(TRK_BIAS_QOVERP_SAGITTA_WM,0.06%)
		sys(TRK_RES_D0_MEAS,0.21%)
		sys(TRK_RES_Z0_MEAS,0.11%)
		sys(TRK_FAKE_RATE_LOOSE,0.70%)
		sys(TRK_FAKE_RATE_LOOSE_TIDE,1.98%)
		sys(TRK_EFF_LOOSE_TIDE,0.03%)
		sys(TRK_EFF_LOOSE_PP0,0.01%)
		sys(TRK_RES_Z0_DEAD,0.12%)
		sys(TRK_EFF_LOOSE_GLOBAL,0.08%)
		sys(metastable_interaction,7.25%)
		sys(MC_FSR,1.41%)
		sys(TRK_EFF_LOOSE_IBL,0.02%)
	}
}
