Analysis(Run2MCcalib,charm,DL1r,FixedCutBEff_100,AntiKtVR30Rmax4Rmin02TrackJets){
	bin(10.0<pt<20.0,0<abseta<2.5)
	{
		central_value(1.00,0.000)
		sys(TRK_RES_Z0_DEAD,0.00%)
		sys(MC_FRAG,0.00%)
		sys(TRK_BIAS_Z0_WM,0.00%)
		sys(TRK_BIAS_D0_WM,0.00%)
		sys(TRK_RES_D0_DEAD,0.00%)
		sys(TRK_RES_D0_MEAS,0.00%)
		sys(TRK_RES_Z0_MEAS,0.00%)
		sys(TRK_FAKE_RATE_LOOSE,0.00%)
		sys(MC_FSR,0.00%)
		sys(TRK_EFF_LOOSE_TIDE,0.00%)
		sys(TRK_EFF_LOOSE_GLOBAL,0.00%)
		sys(TRK_EFF_LOOSE_PP0,0.00%)
		sys(TRK_EFF_LOOSE_PHYSMODEL,0.00%)
		sys(TRK_BIAS_QOVERP_SAGITTA_WM,0.00%)
		sys(TRK_FAKE_RATE_LOOSE_TIDE,0.00%)
		sys(TRK_EFF_LOOSE_IBL,0.00%)
	}
	bin(20.0<pt<40.0,0<abseta<2.5)
	{
		central_value(1.00,0.001)
		sys(TRK_RES_Z0_DEAD,0.02%)
		sys(MC_FRAG,-1.60%)
		sys(TRK_BIAS_Z0_WM,0.08%)
		sys(TRK_BIAS_D0_WM,0.04%)
		sys(TRK_RES_D0_DEAD,0.02%)
		sys(TRK_RES_D0_MEAS,0.25%)
		sys(TRK_RES_Z0_MEAS,0.11%)
		sys(TRK_FAKE_RATE_LOOSE,0.18%)
		sys(MC_FSR,0.12%)
		sys(TRK_EFF_LOOSE_TIDE,0.01%)
		sys(TRK_EFF_LOOSE_GLOBAL,0.09%)
		sys(TRK_EFF_LOOSE_PP0,0.02%)
		sys(TRK_EFF_LOOSE_PHYSMODEL,0.05%)
		sys(TRK_BIAS_QOVERP_SAGITTA_WM,0.01%)
		sys(TRK_FAKE_RATE_LOOSE_TIDE,0.40%)
		sys(TRK_EFF_LOOSE_IBL,0.07%)
	}
	bin(40.0<pt<65.0,0<abseta<2.5)
	{
		central_value(1.00,0.001)
		sys(TRK_RES_Z0_DEAD,0.03%)
		sys(MC_FRAG,-2.29%)
		sys(TRK_BIAS_Z0_WM,0.00%)
		sys(TRK_BIAS_D0_WM,0.08%)
		sys(TRK_RES_D0_DEAD,0.00%)
		sys(TRK_RES_D0_MEAS,0.32%)
		sys(TRK_RES_Z0_MEAS,0.13%)
		sys(TRK_FAKE_RATE_LOOSE,0.31%)
		sys(MC_FSR,0.31%)
		sys(TRK_EFF_LOOSE_TIDE,0.02%)
		sys(TRK_EFF_LOOSE_GLOBAL,0.14%)
		sys(TRK_EFF_LOOSE_PP0,0.04%)
		sys(TRK_EFF_LOOSE_PHYSMODEL,0.10%)
		sys(TRK_BIAS_QOVERP_SAGITTA_WM,0.02%)
		sys(TRK_FAKE_RATE_LOOSE_TIDE,0.75%)
		sys(TRK_EFF_LOOSE_IBL,0.11%)
	}
	bin(65.0<pt<90.0,0<abseta<2.5)
	{
		central_value(1.00,0.001)
		sys(TRK_RES_Z0_DEAD,0.04%)
		sys(MC_FRAG,-2.93%)
		sys(TRK_BIAS_Z0_WM,0.07%)
		sys(TRK_BIAS_D0_WM,0.15%)
		sys(TRK_RES_D0_DEAD,0.04%)
		sys(TRK_RES_D0_MEAS,0.33%)
		sys(TRK_RES_Z0_MEAS,0.14%)
		sys(TRK_FAKE_RATE_LOOSE,0.44%)
		sys(MC_FSR,0.31%)
		sys(TRK_EFF_LOOSE_TIDE,0.02%)
		sys(TRK_EFF_LOOSE_GLOBAL,0.11%)
		sys(TRK_EFF_LOOSE_PP0,0.04%)
		sys(TRK_EFF_LOOSE_PHYSMODEL,0.08%)
		sys(TRK_BIAS_QOVERP_SAGITTA_WM,0.03%)
		sys(TRK_FAKE_RATE_LOOSE_TIDE,1.13%)
		sys(TRK_EFF_LOOSE_IBL,0.10%)
	}
	bin(90.0<pt<115.0,0<abseta<2.5)
	{
		central_value(1.00,0.002)
		sys(TRK_RES_Z0_DEAD,0.08%)
		sys(MC_FRAG,-2.60%)
		sys(TRK_BIAS_Z0_WM,0.13%)
		sys(TRK_BIAS_D0_WM,0.11%)
		sys(TRK_RES_D0_DEAD,0.06%)
		sys(TRK_RES_D0_MEAS,0.33%)
		sys(TRK_RES_Z0_MEAS,0.18%)
		sys(TRK_FAKE_RATE_LOOSE,0.66%)
		sys(MC_FSR,0.61%)
		sys(TRK_EFF_LOOSE_TIDE,0.01%)
		sys(TRK_EFF_LOOSE_GLOBAL,0.06%)
		sys(TRK_EFF_LOOSE_PP0,0.02%)
		sys(TRK_EFF_LOOSE_PHYSMODEL,0.01%)
		sys(TRK_BIAS_QOVERP_SAGITTA_WM,0.06%)
		sys(TRK_FAKE_RATE_LOOSE_TIDE,1.60%)
		sys(TRK_EFF_LOOSE_IBL,0.06%)
	}
	bin(115.0<pt<140.0,0<abseta<2.5)
	{
		central_value(1.00,0.001)
		sys(TRK_RES_Z0_DEAD,0.03%)
		sys(MC_FRAG,-1.02%)
		sys(TRK_BIAS_Z0_WM,0.06%)
		sys(TRK_BIAS_D0_WM,0.03%)
		sys(TRK_RES_D0_DEAD,0.08%)
		sys(TRK_RES_D0_MEAS,0.23%)
		sys(TRK_RES_Z0_MEAS,0.10%)
		sys(TRK_FAKE_RATE_LOOSE,0.72%)
		sys(MC_FSR,0.35%)
		sys(TRK_EFF_LOOSE_TIDE,0.01%)
		sys(TRK_EFF_LOOSE_GLOBAL,0.10%)
		sys(TRK_EFF_LOOSE_PP0,0.01%)
		sys(TRK_EFF_LOOSE_PHYSMODEL,0.03%)
		sys(TRK_BIAS_QOVERP_SAGITTA_WM,0.06%)
		sys(TRK_FAKE_RATE_LOOSE_TIDE,1.63%)
		sys(TRK_EFF_LOOSE_IBL,0.05%)
	}
	bin(140.0<pt<250.0,0<abseta<2.5)
	{
		central_value(1.00,0.001)
		sys(TRK_RES_Z0_DEAD,0.06%)
		sys(MC_FRAG,0.43%)
		sys(TRK_BIAS_Z0_WM,0.04%)
		sys(TRK_BIAS_D0_WM,0.01%)
		sys(TRK_RES_D0_DEAD,0.05%)
		sys(TRK_RES_D0_MEAS,0.20%)
		sys(TRK_RES_Z0_MEAS,0.09%)
		sys(TRK_FAKE_RATE_LOOSE,0.64%)
		sys(MC_FSR,0.55%)
		sys(TRK_EFF_LOOSE_TIDE,0.00%)
		sys(TRK_EFF_LOOSE_GLOBAL,0.08%)
		sys(TRK_EFF_LOOSE_PP0,0.01%)
		sys(TRK_EFF_LOOSE_PHYSMODEL,0.06%)
		sys(TRK_BIAS_QOVERP_SAGITTA_WM,0.01%)
		sys(TRK_FAKE_RATE_LOOSE_TIDE,1.55%)
		sys(TRK_EFF_LOOSE_IBL,0.07%)
	}
	bin(250.0<pt<400.0,0<abseta<2.5)
	{
		central_value(1.00,0.001)
		sys(TRK_RES_Z0_DEAD,0.01%)
		sys(MC_FRAG,0.10%)
		sys(TRK_BIAS_Z0_WM,0.02%)
		sys(TRK_BIAS_D0_WM,0.05%)
		sys(TRK_RES_D0_DEAD,0.01%)
		sys(TRK_RES_D0_MEAS,0.22%)
		sys(TRK_RES_Z0_MEAS,0.07%)
		sys(TRK_FAKE_RATE_LOOSE,0.67%)
		sys(MC_FSR,0.46%)
		sys(TRK_EFF_LOOSE_TIDE,0.01%)
		sys(TRK_EFF_LOOSE_GLOBAL,0.04%)
		sys(TRK_EFF_LOOSE_PP0,0.01%)
		sys(TRK_EFF_LOOSE_PHYSMODEL,0.03%)
		sys(TRK_BIAS_QOVERP_SAGITTA_WM,0.04%)
		sys(TRK_FAKE_RATE_LOOSE_TIDE,1.56%)
		sys(TRK_EFF_LOOSE_IBL,0.03%)
	}
	bin(400.0<pt<650.0,0<abseta<2.5)
	{
		central_value(1.00,0.000)
		sys(TRK_RES_Z0_DEAD,0.01%)
		sys(MC_FRAG,-0.56%)
		sys(TRK_BIAS_Z0_WM,0.02%)
		sys(TRK_BIAS_D0_WM,0.02%)
		sys(TRK_RES_D0_DEAD,0.03%)
		sys(TRK_RES_D0_MEAS,0.25%)
		sys(TRK_RES_Z0_MEAS,0.03%)
		sys(TRK_FAKE_RATE_LOOSE,0.65%)
		sys(MC_FSR,0.45%)
		sys(TRK_EFF_LOOSE_TIDE,0.01%)
		sys(TRK_EFF_LOOSE_GLOBAL,0.00%)
		sys(TRK_EFF_LOOSE_PP0,0.00%)
		sys(TRK_EFF_LOOSE_PHYSMODEL,0.00%)
		sys(TRK_BIAS_QOVERP_SAGITTA_WM,0.00%)
		sys(TRK_FAKE_RATE_LOOSE_TIDE,1.57%)
		sys(TRK_EFF_LOOSE_IBL,0.01%)
	}
	bin(650.0<pt<1000.0,0<abseta<2.5)
	{
		central_value(1.00,0.001)
		sys(TRK_RES_Z0_DEAD,0.02%)
		sys(MC_FRAG,-1.12%)
		sys(TRK_BIAS_Z0_WM,0.02%)
		sys(TRK_BIAS_D0_WM,0.02%)
		sys(TRK_RES_D0_DEAD,0.02%)
		sys(TRK_RES_D0_MEAS,0.21%)
		sys(TRK_RES_Z0_MEAS,0.04%)
		sys(TRK_FAKE_RATE_LOOSE,0.60%)
		sys(MC_FSR,0.32%)
		sys(TRK_EFF_LOOSE_TIDE,0.00%)
		sys(TRK_EFF_LOOSE_GLOBAL,0.00%)
		sys(TRK_EFF_LOOSE_PP0,0.00%)
		sys(TRK_EFF_LOOSE_PHYSMODEL,0.01%)
		sys(TRK_BIAS_QOVERP_SAGITTA_WM,0.03%)
		sys(TRK_FAKE_RATE_LOOSE_TIDE,1.48%)
		sys(TRK_EFF_LOOSE_IBL,0.02%)
	}
}
