Analysis(Run2MCcalib,light,DL1r,FixedCutBEff_77,AntiKtVR30Rmax4Rmin02TrackJets){
	bin(20.0<pt<50.0,0<abseta<2.5)
	{
		central_value(1.00,0.012)
		sys(TRK_EFF_LOOSE_PHYSMODEL,0.03%)
		sys(TRK_BIAS_Z0_WM,0.52%)
		sys(TRK_BIAS_D0_WM,0.26%)
		sys(TRK_RES_D0_DEAD,0.72%)
		sys(TRK_FAKE_RATE_LOOSE,2.79%)
		sys(TRK_EFF_LOOSE_TIDE,0.31%)
		sys(TRK_EFF_LOOSE_GLOBAL,0.63%)
		sys(TRK_EFF_LOOSE_PP0,0.13%)
		sys(TRK_RES_Z0_DEAD,0.22%)
		sys(TRK_BIAS_QOVERP_SAGITTA_WM,0.51%)
		sys(TRK_FAKE_RATE_LOOSE_TIDE,5.26%)
		sys(TRK_EFF_LOOSE_IBL,0.47%)
	}
	bin(50.0<pt<100.0,0<abseta<2.5)
	{
		central_value(1.00,0.012)
		sys(TRK_EFF_LOOSE_PHYSMODEL,0.23%)
		sys(TRK_BIAS_Z0_WM,0.49%)
		sys(TRK_BIAS_D0_WM,0.39%)
		sys(TRK_RES_D0_DEAD,0.13%)
		sys(TRK_FAKE_RATE_LOOSE,3.30%)
		sys(TRK_EFF_LOOSE_TIDE,0.29%)
		sys(TRK_EFF_LOOSE_GLOBAL,0.17%)
		sys(TRK_EFF_LOOSE_PP0,0.10%)
		sys(TRK_RES_Z0_DEAD,0.95%)
		sys(TRK_BIAS_QOVERP_SAGITTA_WM,0.67%)
		sys(TRK_FAKE_RATE_LOOSE_TIDE,5.98%)
		sys(TRK_EFF_LOOSE_IBL,0.20%)
	}
	bin(100.0<pt<150.0,0<abseta<2.5)
	{
		central_value(1.00,0.013)
		sys(TRK_EFF_LOOSE_PHYSMODEL,0.55%)
		sys(TRK_BIAS_Z0_WM,0.31%)
		sys(TRK_BIAS_D0_WM,0.97%)
		sys(TRK_RES_D0_DEAD,0.10%)
		sys(TRK_FAKE_RATE_LOOSE,4.30%)
		sys(TRK_EFF_LOOSE_TIDE,0.18%)
		sys(TRK_EFF_LOOSE_GLOBAL,0.90%)
		sys(TRK_EFF_LOOSE_PP0,0.37%)
		sys(TRK_RES_Z0_DEAD,0.43%)
		sys(TRK_BIAS_QOVERP_SAGITTA_WM,0.28%)
		sys(TRK_FAKE_RATE_LOOSE_TIDE,6.26%)
		sys(TRK_EFF_LOOSE_IBL,0.74%)
	}
	bin(150.0<pt<300.0,0<abseta<2.5)
	{
		central_value(1.00,0.008)
		sys(TRK_EFF_LOOSE_PHYSMODEL,0.43%)
		sys(TRK_BIAS_Z0_WM,0.76%)
		sys(TRK_BIAS_D0_WM,0.88%)
		sys(TRK_RES_D0_DEAD,1.28%)
		sys(TRK_FAKE_RATE_LOOSE,3.03%)
		sys(TRK_EFF_LOOSE_TIDE,0.11%)
		sys(TRK_EFF_LOOSE_GLOBAL,0.77%)
		sys(TRK_EFF_LOOSE_PP0,0.14%)
		sys(TRK_RES_Z0_DEAD,0.97%)
		sys(TRK_BIAS_QOVERP_SAGITTA_WM,0.65%)
		sys(TRK_FAKE_RATE_LOOSE_TIDE,7.35%)
		sys(TRK_EFF_LOOSE_IBL,0.65%)
	}
	bin(300.0<pt<500.0,0<abseta<2.5)
	{
		central_value(1.00,0.008)
		sys(TRK_EFF_LOOSE_PHYSMODEL,0.25%)
		sys(TRK_BIAS_Z0_WM,0.06%)
		sys(TRK_BIAS_D0_WM,0.25%)
		sys(TRK_RES_D0_DEAD,0.24%)
		sys(TRK_FAKE_RATE_LOOSE,5.21%)
		sys(TRK_EFF_LOOSE_TIDE,0.05%)
		sys(TRK_EFF_LOOSE_GLOBAL,0.56%)
		sys(TRK_EFF_LOOSE_PP0,0.06%)
		sys(TRK_RES_Z0_DEAD,0.17%)
		sys(TRK_BIAS_QOVERP_SAGITTA_WM,0.44%)
		sys(TRK_FAKE_RATE_LOOSE_TIDE,12.47%)
		sys(TRK_EFF_LOOSE_IBL,0.41%)
	}
	bin(500.0<pt<800.0,0<abseta<2.5)
	{
		central_value(1.00,0.008)
		sys(TRK_EFF_LOOSE_PHYSMODEL,0.28%)
		sys(TRK_BIAS_Z0_WM,0.16%)
		sys(TRK_BIAS_D0_WM,0.44%)
		sys(TRK_RES_D0_DEAD,0.54%)
		sys(TRK_FAKE_RATE_LOOSE,6.15%)
		sys(TRK_EFF_LOOSE_TIDE,0.05%)
		sys(TRK_EFF_LOOSE_GLOBAL,0.55%)
		sys(TRK_EFF_LOOSE_PP0,0.01%)
		sys(TRK_RES_Z0_DEAD,0.75%)
		sys(TRK_BIAS_QOVERP_SAGITTA_WM,0.47%)
		sys(TRK_FAKE_RATE_LOOSE_TIDE,15.32%)
		sys(TRK_EFF_LOOSE_IBL,0.36%)
	}
	bin(800.0<pt<1200.0,0<abseta<2.5)
	{
		central_value(1.00,0.011)
		sys(TRK_EFF_LOOSE_PHYSMODEL,0.01%)
		sys(TRK_BIAS_Z0_WM,0.05%)
		sys(TRK_BIAS_D0_WM,0.19%)
		sys(TRK_RES_D0_DEAD,1.41%)
		sys(TRK_FAKE_RATE_LOOSE,6.08%)
		sys(TRK_EFF_LOOSE_TIDE,0.12%)
		sys(TRK_EFF_LOOSE_GLOBAL,0.09%)
		sys(TRK_EFF_LOOSE_PP0,0.12%)
		sys(TRK_RES_Z0_DEAD,0.36%)
		sys(TRK_BIAS_QOVERP_SAGITTA_WM,0.30%)
		sys(TRK_FAKE_RATE_LOOSE_TIDE,15.58%)
		sys(TRK_EFF_LOOSE_IBL,0.01%)
	}
	bin(1200.0<pt<2000.0,0<abseta<2.5)
	{
		central_value(1.00,0.016)
		sys(TRK_EFF_LOOSE_PHYSMODEL,0.58%)
		sys(TRK_BIAS_Z0_WM,2.23%)
		sys(TRK_BIAS_D0_WM,0.86%)
		sys(TRK_RES_D0_DEAD,0.42%)
		sys(TRK_FAKE_RATE_LOOSE,6.55%)
		sys(TRK_EFF_LOOSE_TIDE,0.19%)
		sys(TRK_EFF_LOOSE_GLOBAL,0.85%)
		sys(TRK_EFF_LOOSE_PP0,0.04%)
		sys(TRK_RES_Z0_DEAD,0.79%)
		sys(TRK_BIAS_QOVERP_SAGITTA_WM,0.13%)
		sys(TRK_FAKE_RATE_LOOSE_TIDE,16.34%)
		sys(TRK_EFF_LOOSE_IBL,0.44%)
	}
	bin(2000.0<pt<3000.0,0<abseta<2.5)
	{
		central_value(1.00,0.028)
		sys(TRK_EFF_LOOSE_PHYSMODEL,0.26%)
		sys(TRK_BIAS_Z0_WM,2.06%)
		sys(TRK_BIAS_D0_WM,1.12%)
		sys(TRK_RES_D0_DEAD,1.39%)
		sys(TRK_FAKE_RATE_LOOSE,5.24%)
		sys(TRK_EFF_LOOSE_TIDE,0.16%)
		sys(TRK_EFF_LOOSE_GLOBAL,0.56%)
		sys(TRK_EFF_LOOSE_PP0,0.09%)
		sys(TRK_RES_Z0_DEAD,3.50%)
		sys(TRK_BIAS_QOVERP_SAGITTA_WM,1.79%)
		sys(TRK_FAKE_RATE_LOOSE_TIDE,15.87%)
		sys(TRK_EFF_LOOSE_IBL,0.38%)
	}
}
