Analysis(Run2MCcalib,light,DL1r,FixedCutBEff_60,AntiKtVR30Rmax4Rmin02TrackJets){
	bin(300.0<pt<500.0,0<abseta<2.5)
	{
		central_value(1.00,0.019)
		sys(TRK_EFF_LOOSE_PHYSMODEL,-0.75%)
		sys(TRK_BIAS_Z0_WM,-1.69%)
		sys(TRK_BIAS_D0_WM,-1.45%)
		sys(TRK_RES_D0_DEAD,-2.11%)
		sys(TRK_FAKE_RATE_LOOSE,2.01%)
		sys(TRK_EFF_LOOSE_TIDE,-0.02%)
		sys(TRK_EFF_LOOSE_GLOBAL,-1.28%)
		sys(TRK_EFF_LOOSE_PP0,-0.02%)
		sys(TRK_RES_Z0_DEAD,1.03%)
		sys(TRK_BIAS_QOVERP_SAGITTA_WM,0.80%)
		sys(TRK_FAKE_RATE_LOOSE_TIDE,5.77%)
		sys(TRK_EFF_LOOSE_IBL,-1.18%)
	}
	bin(500.0<pt<800.0,0<abseta<2.5)
	{
		central_value(1.00,0.021)
		sys(TRK_EFF_LOOSE_PHYSMODEL,-0.60%)
		sys(TRK_BIAS_Z0_WM,-2.56%)
		sys(TRK_BIAS_D0_WM,-1.79%)
		sys(TRK_RES_D0_DEAD,-0.85%)
		sys(TRK_FAKE_RATE_LOOSE,4.34%)
		sys(TRK_EFF_LOOSE_TIDE,0.19%)
		sys(TRK_EFF_LOOSE_GLOBAL,-0.89%)
		sys(TRK_EFF_LOOSE_PP0,0.02%)
		sys(TRK_RES_Z0_DEAD,-0.36%)
		sys(TRK_BIAS_QOVERP_SAGITTA_WM,-0.72%)
		sys(TRK_FAKE_RATE_LOOSE_TIDE,7.79%)
		sys(TRK_EFF_LOOSE_IBL,-0.82%)
	}
	bin(800.0<pt<1200.0,0<abseta<2.5)
	{
		central_value(1.00,0.031)
		sys(TRK_EFF_LOOSE_PHYSMODEL,-0.27%)
		sys(TRK_BIAS_Z0_WM,-2.18%)
		sys(TRK_BIAS_D0_WM,-1.06%)
		sys(TRK_RES_D0_DEAD,-0.09%)
		sys(TRK_FAKE_RATE_LOOSE,6.87%)
		sys(TRK_EFF_LOOSE_TIDE,0.21%)
		sys(TRK_EFF_LOOSE_GLOBAL,-1.14%)
		sys(TRK_EFF_LOOSE_PP0,0.03%)
		sys(TRK_RES_Z0_DEAD,-0.02%)
		sys(TRK_BIAS_QOVERP_SAGITTA_WM,0.75%)
		sys(TRK_FAKE_RATE_LOOSE_TIDE,7.91%)
		sys(TRK_EFF_LOOSE_IBL,-0.65%)
	}
	bin(1200.0<pt<2000.0,0<abseta<2.5)
	{
		central_value(1.00,0.051)
		sys(TRK_EFF_LOOSE_PHYSMODEL,-0.90%)
		sys(TRK_BIAS_Z0_WM,0.25%)
		sys(TRK_BIAS_D0_WM,1.58%)
		sys(TRK_RES_D0_DEAD,0.68%)
		sys(TRK_FAKE_RATE_LOOSE,4.34%)
		sys(TRK_EFF_LOOSE_TIDE,0.61%)
		sys(TRK_EFF_LOOSE_GLOBAL,-0.95%)
		sys(TRK_EFF_LOOSE_PP0,0.19%)
		sys(TRK_RES_Z0_DEAD,4.76%)
		sys(TRK_BIAS_QOVERP_SAGITTA_WM,2.97%)
		sys(TRK_FAKE_RATE_LOOSE_TIDE,10.33%)
		sys(TRK_EFF_LOOSE_IBL,-0.56%)
	}
	bin(2000.0<pt<3000.0,0<abseta<2.5)
	{
		central_value(1.00,0.077)
		sys(TRK_EFF_LOOSE_PHYSMODEL,0.19%)
		sys(TRK_BIAS_Z0_WM,0.66%)
		sys(TRK_BIAS_D0_WM,1.75%)
		sys(TRK_RES_D0_DEAD,-1.57%)
		sys(TRK_FAKE_RATE_LOOSE,5.24%)
		sys(TRK_EFF_LOOSE_TIDE,-0.08%)
		sys(TRK_EFF_LOOSE_GLOBAL,-1.15%)
		sys(TRK_EFF_LOOSE_PP0,0.03%)
		sys(TRK_RES_Z0_DEAD,2.55%)
		sys(TRK_BIAS_QOVERP_SAGITTA_WM,11.57%)
		sys(TRK_FAKE_RATE_LOOSE_TIDE,16.75%)
		sys(TRK_EFF_LOOSE_IBL,-1.31%)
	}
}
