Analysis(Run2MCcalib,charm,DL1r,FixedCutBEff_77,AntiKtVR30Rmax4Rmin02TrackJets){
	bin(10.0<pt<20.0,0<abseta<2.5)
	{
		central_value(1.00,0.000)
		sys(TRK_RES_Z0_MEAS,0.00%)
		sys(TRK_RES_D0_MEAS,0.00%)
	}
	bin(20.0<pt<40.0,0<abseta<2.5)
	{
		central_value(1.00,0.006)
		sys(TRK_RES_Z0_MEAS,0.55%)
		sys(TRK_RES_D0_MEAS,0.39%)
	}
	bin(40.0<pt<65.0,0<abseta<2.5)
	{
		central_value(1.00,0.007)
		sys(TRK_RES_Z0_MEAS,0.60%)
		sys(TRK_RES_D0_MEAS,0.84%)
	}
	bin(65.0<pt<140.0,0<abseta<2.5)
	{
		central_value(1.00,0.005)
		sys(TRK_RES_Z0_MEAS,0.07%)
		sys(TRK_RES_D0_MEAS,0.35%)
	}
	bin(140.0<pt<250.0,0<abseta<2.5)
	{
		central_value(1.00,0.005)
		sys(TRK_RES_Z0_MEAS,0.39%)
		sys(TRK_RES_D0_MEAS,0.62%)
	}
	bin(250.0<pt<400.0,0<abseta<2.5)
	{
		central_value(1.00,0.004)
		sys(TRK_RES_Z0_MEAS,0.72%)
		sys(TRK_RES_D0_MEAS,0.99%)
	}
	bin(400.0<pt<650.0,0<abseta<2.5)
	{
		central_value(1.00,0.004)
		sys(TRK_RES_Z0_MEAS,0.51%)
		sys(TRK_RES_D0_MEAS,0.79%)
	}
	bin(650.0<pt<1000.0,0<abseta<2.5)
	{
		central_value(1.00,0.006)
		sys(TRK_RES_Z0_MEAS,0.48%)
		sys(TRK_RES_D0_MEAS,1.34%)
	}
}
