Analysis(Run2MCcalib,charm,DL1r,FixedCutBEff_77,AntiKtVR30Rmax4Rmin02TrackJets){
	bin(10.0<pt<20.0,0<abseta<2.5)
	{
		central_value(1.00,0.000)
		sys(TRK_RES_Z0_DEAD,0.00%)
		sys(MC_FRAG,0.00%)
		sys(TRK_BIAS_Z0_WM,0.00%)
		sys(TRK_BIAS_D0_WM,0.00%)
		sys(TRK_RES_D0_DEAD,0.00%)
		sys(TRK_RES_D0_MEAS,0.00%)
		sys(TRK_RES_Z0_MEAS,0.00%)
		sys(TRK_FAKE_RATE_LOOSE,0.00%)
		sys(MC_FSR,0.00%)
		sys(TRK_EFF_LOOSE_TIDE,0.00%)
		sys(TRK_EFF_LOOSE_GLOBAL,0.00%)
		sys(TRK_EFF_LOOSE_PP0,0.00%)
		sys(TRK_EFF_LOOSE_PHYSMODEL,0.00%)
		sys(TRK_BIAS_QOVERP_SAGITTA_WM,0.00%)
		sys(TRK_FAKE_RATE_LOOSE_TIDE,0.00%)
		sys(TRK_EFF_LOOSE_IBL,0.00%)
	}
	bin(20.0<pt<40.0,0<abseta<2.5)
	{
		central_value(1.00,0.006)
		sys(TRK_RES_Z0_DEAD,0.18%)
		sys(MC_FRAG,1.85%)
		sys(TRK_BIAS_Z0_WM,0.17%)
		sys(TRK_BIAS_D0_WM,0.16%)
		sys(TRK_RES_D0_DEAD,0.34%)
		sys(TRK_RES_D0_MEAS,0.39%)
		sys(TRK_RES_Z0_MEAS,0.55%)
		sys(TRK_FAKE_RATE_LOOSE,0.30%)
		sys(MC_FSR,0.53%)
		sys(TRK_EFF_LOOSE_TIDE,0.01%)
		sys(TRK_EFF_LOOSE_GLOBAL,0.22%)
		sys(TRK_EFF_LOOSE_PP0,0.05%)
		sys(TRK_EFF_LOOSE_PHYSMODEL,0.11%)
		sys(TRK_BIAS_QOVERP_SAGITTA_WM,0.12%)
		sys(TRK_FAKE_RATE_LOOSE_TIDE,0.86%)
		sys(TRK_EFF_LOOSE_IBL,0.29%)
	}
	bin(40.0<pt<65.0,0<abseta<2.5)
	{
		central_value(1.00,0.007)
		sys(TRK_RES_Z0_DEAD,0.08%)
		sys(MC_FRAG,4.23%)
		sys(TRK_BIAS_Z0_WM,0.07%)
		sys(TRK_BIAS_D0_WM,0.64%)
		sys(TRK_RES_D0_DEAD,0.56%)
		sys(TRK_RES_D0_MEAS,0.84%)
		sys(TRK_RES_Z0_MEAS,0.60%)
		sys(TRK_FAKE_RATE_LOOSE,0.34%)
		sys(MC_FSR,0.94%)
		sys(TRK_EFF_LOOSE_TIDE,0.01%)
		sys(TRK_EFF_LOOSE_GLOBAL,0.25%)
		sys(TRK_EFF_LOOSE_PP0,0.09%)
		sys(TRK_EFF_LOOSE_PHYSMODEL,0.11%)
		sys(TRK_BIAS_QOVERP_SAGITTA_WM,0.33%)
		sys(TRK_FAKE_RATE_LOOSE_TIDE,1.44%)
		sys(TRK_EFF_LOOSE_IBL,0.23%)
	}
	bin(65.0<pt<140.0,0<abseta<2.5)
	{
		central_value(1.00,0.005)
		sys(TRK_RES_Z0_DEAD,0.06%)
		sys(MC_FRAG,4.51%)
		sys(TRK_BIAS_Z0_WM,0.36%)
		sys(TRK_BIAS_D0_WM,0.46%)
		sys(TRK_RES_D0_DEAD,0.01%)
		sys(TRK_RES_D0_MEAS,0.35%)
		sys(TRK_RES_Z0_MEAS,0.07%)
		sys(TRK_FAKE_RATE_LOOSE,1.44%)
		sys(MC_FSR,0.49%)
		sys(TRK_EFF_LOOSE_TIDE,0.04%)
		sys(TRK_EFF_LOOSE_GLOBAL,0.24%)
		sys(TRK_EFF_LOOSE_PP0,0.05%)
		sys(TRK_EFF_LOOSE_PHYSMODEL,0.13%)
		sys(TRK_BIAS_QOVERP_SAGITTA_WM,0.03%)
		sys(TRK_FAKE_RATE_LOOSE_TIDE,3.52%)
		sys(TRK_EFF_LOOSE_IBL,0.12%)
	}
	bin(140.0<pt<250.0,0<abseta<2.5)
	{
		central_value(1.00,0.005)
		sys(TRK_RES_Z0_DEAD,0.46%)
		sys(MC_FRAG,-3.21%)
		sys(TRK_BIAS_Z0_WM,0.04%)
		sys(TRK_BIAS_D0_WM,0.18%)
		sys(TRK_RES_D0_DEAD,0.02%)
		sys(TRK_RES_D0_MEAS,0.62%)
		sys(TRK_RES_Z0_MEAS,0.39%)
		sys(TRK_FAKE_RATE_LOOSE,1.87%)
		sys(MC_FSR,3.15%)
		sys(TRK_EFF_LOOSE_TIDE,0.01%)
		sys(TRK_EFF_LOOSE_GLOBAL,0.27%)
		sys(TRK_EFF_LOOSE_PP0,0.11%)
		sys(TRK_EFF_LOOSE_PHYSMODEL,0.25%)
		sys(TRK_BIAS_QOVERP_SAGITTA_WM,0.20%)
		sys(TRK_FAKE_RATE_LOOSE_TIDE,4.72%)
		sys(TRK_EFF_LOOSE_IBL,0.27%)
	}
	bin(250.0<pt<400.0,0<abseta<2.5)
	{
		central_value(1.00,0.005)
		sys(TRK_RES_Z0_DEAD,0.23%)
		sys(MC_FRAG,-1.78%)
		sys(TRK_BIAS_Z0_WM,0.13%)
		sys(TRK_BIAS_D0_WM,0.22%)
		sys(TRK_RES_D0_DEAD,0.37%)
		sys(TRK_RES_D0_MEAS,0.99%)
		sys(TRK_RES_Z0_MEAS,0.72%)
		sys(TRK_FAKE_RATE_LOOSE,4.85%)
		sys(MC_FSR,2.26%)
		sys(TRK_EFF_LOOSE_TIDE,0.07%)
		sys(TRK_EFF_LOOSE_GLOBAL,0.19%)
		sys(TRK_EFF_LOOSE_PP0,0.05%)
		sys(TRK_EFF_LOOSE_PHYSMODEL,0.23%)
		sys(TRK_BIAS_QOVERP_SAGITTA_WM,0.12%)
		sys(TRK_FAKE_RATE_LOOSE_TIDE,5.74%)
		sys(TRK_EFF_LOOSE_IBL,0.29%)
	}
	bin(400.0<pt<650.0,0<abseta<2.5)
	{
		central_value(1.00,0.005)
		sys(TRK_RES_Z0_DEAD,0.24%)
		sys(MC_FRAG,0.13%)
		sys(TRK_BIAS_Z0_WM,0.20%)
		sys(TRK_BIAS_D0_WM,0.43%)
		sys(TRK_RES_D0_DEAD,0.18%)
		sys(TRK_RES_D0_MEAS,0.79%)
		sys(TRK_RES_Z0_MEAS,0.51%)
		sys(TRK_FAKE_RATE_LOOSE,2.83%)
		sys(MC_FSR,1.83%)
		sys(TRK_EFF_LOOSE_TIDE,0.11%)
		sys(TRK_EFF_LOOSE_GLOBAL,0.16%)
		sys(TRK_EFF_LOOSE_PP0,0.00%)
		sys(TRK_EFF_LOOSE_PHYSMODEL,0.08%)
		sys(TRK_BIAS_QOVERP_SAGITTA_WM,0.27%)
		sys(TRK_FAKE_RATE_LOOSE_TIDE,7.39%)
		sys(TRK_EFF_LOOSE_IBL,0.11%)
	}
	bin(650.0<pt<1000.0,0<abseta<2.5)
	{
		central_value(1.00,0.006)
		sys(TRK_RES_Z0_DEAD,0.41%)
		sys(MC_FRAG,4.26%)
		sys(TRK_BIAS_Z0_WM,1.32%)
		sys(TRK_BIAS_D0_WM,0.09%)
		sys(TRK_RES_D0_DEAD,0.64%)
		sys(TRK_RES_D0_MEAS,1.34%)
		sys(TRK_RES_Z0_MEAS,0.48%)
		sys(TRK_FAKE_RATE_LOOSE,3.41%)
		sys(MC_FSR,2.15%)
		sys(TRK_EFF_LOOSE_TIDE,0.13%)
		sys(TRK_EFF_LOOSE_GLOBAL,0.10%)
		sys(TRK_EFF_LOOSE_PP0,0.00%)
		sys(TRK_EFF_LOOSE_PHYSMODEL,0.02%)
		sys(TRK_BIAS_QOVERP_SAGITTA_WM,0.21%)
		sys(TRK_FAKE_RATE_LOOSE_TIDE,8.21%)
		sys(TRK_EFF_LOOSE_IBL,0.11%)
	}
}
