Analysis(Run2MCcalib,bottom,DL1r,FixedCutBEff_85,AntiKtVR30Rmax4Rmin02TrackJets){
	bin(250.0<pt<400.0,0<abseta<2.5)
	{
		central_value(1.00,0.002)
		sys(TRK_RES_Z0_MEAS,0.18%)
		sys(TRK_RES_D0_MEAS,0.17%)
	}
	bin(400.0<pt<500.0,0<abseta<2.5)
	{
		central_value(1.00,0.003)
		sys(TRK_RES_Z0_MEAS,0.15%)
		sys(TRK_RES_D0_MEAS,0.24%)
	}
	bin(500.0<pt<700.0,0<abseta<2.5)
	{
		central_value(1.00,0.003)
		sys(TRK_RES_Z0_MEAS,0.31%)
		sys(TRK_RES_D0_MEAS,0.42%)
	}
	bin(700.0<pt<900.0,0<abseta<2.5)
	{
		central_value(1.00,0.004)
		sys(TRK_RES_Z0_MEAS,0.28%)
		sys(TRK_RES_D0_MEAS,0.41%)
	}
	bin(900.0<pt<1100.0,0<abseta<2.5)
	{
		central_value(1.00,0.005)
		sys(TRK_RES_Z0_MEAS,0.62%)
		sys(TRK_RES_D0_MEAS,0.20%)
	}
	bin(1100.0<pt<1400.0,0<abseta<2.5)
	{
		central_value(1.00,0.007)
		sys(TRK_RES_Z0_MEAS,0.05%)
		sys(TRK_RES_D0_MEAS,-0.07%)
	}
	bin(1400.0<pt<1700.0,0<abseta<2.5)
	{
		central_value(1.00,0.009)
		sys(TRK_RES_Z0_MEAS,0.44%)
		sys(TRK_RES_D0_MEAS,0.94%)
	}
	bin(1700.0<pt<2000.0,0<abseta<2.5)
	{
		central_value(1.00,0.010)
		sys(TRK_RES_Z0_MEAS,0.06%)
		sys(TRK_RES_D0_MEAS,0.94%)
	}
	bin(2000.0<pt<2500.0,0<abseta<2.5)
	{
		central_value(1.00,0.011)
		sys(TRK_RES_Z0_MEAS,0.71%)
		sys(TRK_RES_D0_MEAS,0.73%)
	}
	bin(2500.0<pt<3000.0,0<abseta<2.5)
	{
		central_value(1.00,0.013)
		sys(TRK_RES_Z0_MEAS,0.47%)
		sys(TRK_RES_D0_MEAS,0.51%)
	}
}
