Analysis(Run2MCcalib,bottom,DL1r,FixedCutBEff_85,AntiKtVR30Rmax4Rmin02TrackJets){
	bin(250.0<pt<400.0,0<abseta<2.5)
	{
		central_value(1.00,0.002)
		sys(MC_FSR,-1.12%)
	}
	bin(400.0<pt<500.0,0<abseta<2.5)
	{
		central_value(1.00,0.004)
		sys(MC_FSR,-0.89%)
	}
	bin(500.0<pt<700.0,0<abseta<2.5)
	{
		central_value(1.00,0.003)
		sys(MC_FSR,0.31%)
	}
	bin(700.0<pt<900.0,0<abseta<2.5)
	{
		central_value(1.00,0.004)
		sys(MC_FSR,0.06%)
	}
	bin(900.0<pt<1100.0,0<abseta<2.5)
	{
		central_value(1.00,0.006)
		sys(MC_FSR,1.35%)
	}
	bin(1100.0<pt<1400.0,0<abseta<2.5)
	{
		central_value(1.00,0.007)
		sys(MC_FSR,0.73%)
	}
	bin(1400.0<pt<1700.0,0<abseta<2.5)
	{
		central_value(1.00,0.009)
		sys(MC_FSR,-0.00%)
	}
	bin(1700.0<pt<2000.0,0<abseta<2.5)
	{
		central_value(1.00,0.012)
		sys(MC_FSR,0.74%)
	}
	bin(2000.0<pt<2500.0,0<abseta<2.5)
	{
		central_value(1.00,0.012)
		sys(MC_FSR,2.01%)
	}
	bin(2500.0<pt<3000.0,0<abseta<2.5)
	{
		central_value(1.00,0.016)
		sys(MC_FSR,3.06%)
	}
}
