Analysis(Run2MCcalib,bottom,DL1r,FixedCutBEff_77,AntiKtVR30Rmax4Rmin02TrackJets){
	bin(250.0<pt<400.0,0<abseta<2.5)
	{
		central_value(1.00,0.003)
		sys(TRK_RES_Z0_MEAS,0.32%)
		sys(TRK_RES_D0_MEAS,0.40%)
	}
	bin(400.0<pt<500.0,0<abseta<2.5)
	{
		central_value(1.00,0.005)
		sys(TRK_RES_Z0_MEAS,0.35%)
		sys(TRK_RES_D0_MEAS,-0.15%)
	}
	bin(500.0<pt<700.0,0<abseta<2.5)
	{
		central_value(1.00,0.004)
		sys(TRK_RES_Z0_MEAS,-0.12%)
		sys(TRK_RES_D0_MEAS,0.59%)
	}
	bin(700.0<pt<900.0,0<abseta<2.5)
	{
		central_value(1.00,0.006)
		sys(TRK_RES_Z0_MEAS,-0.27%)
		sys(TRK_RES_D0_MEAS,0.19%)
	}
	bin(900.0<pt<1100.0,0<abseta<2.5)
	{
		central_value(1.00,0.009)
		sys(TRK_RES_Z0_MEAS,-0.11%)
		sys(TRK_RES_D0_MEAS,1.01%)
	}
	bin(1100.0<pt<1400.0,0<abseta<2.5)
	{
		central_value(1.00,0.011)
		sys(TRK_RES_Z0_MEAS,-0.12%)
		sys(TRK_RES_D0_MEAS,-0.06%)
	}
	bin(1400.0<pt<1700.0,0<abseta<2.5)
	{
		central_value(1.00,0.014)
		sys(TRK_RES_Z0_MEAS,0.31%)
		sys(TRK_RES_D0_MEAS,1.64%)
	}
	bin(1700.0<pt<2000.0,0<abseta<2.5)
	{
		central_value(1.00,0.020)
		sys(TRK_RES_Z0_MEAS,0.52%)
		sys(TRK_RES_D0_MEAS,0.25%)
	}
	bin(2000.0<pt<2500.0,0<abseta<2.5)
	{
		central_value(1.00,0.021)
		sys(TRK_RES_Z0_MEAS,2.16%)
		sys(TRK_RES_D0_MEAS,0.30%)
	}
	bin(2500.0<pt<3000.0,0<abseta<2.5)
	{
		central_value(1.00,0.024)
		sys(TRK_RES_Z0_MEAS,0.65%)
		sys(TRK_RES_D0_MEAS,0.57%)
	}
}
