Analysis(Run2MCcalib,bottom,DL1r,FixedCutBEff_77,AntiKtVR30Rmax4Rmin02TrackJets){
	bin(250.0<pt<400.0,0<abseta<2.5)
	{
		central_value(1.00,0.003)
		sys(TRK_EFF_LOOSE_PHYSMODEL,-0.12%)
		sys(MC_FRAG,-3.80%)
		sys(TRK_BIAS_Z0_WM,0.03%)
		sys(TRK_BIAS_D0_WM,-0.00%)
		sys(TRK_RES_D0_DEAD,-0.10%)
		sys(TRK_BIAS_QOVERP_SAGITTA_WM,-0.01%)
		sys(TRK_RES_D0_MEAS,0.40%)
		sys(TRK_RES_Z0_MEAS,0.32%)
		sys(TRK_FAKE_RATE_LOOSE,-0.17%)
		sys(TRK_FAKE_RATE_LOOSE_TIDE,0.05%)
		sys(TRK_EFF_LOOSE_TIDE,-0.03%)
		sys(TRK_EFF_LOOSE_PP0,-0.02%)
		sys(TRK_RES_Z0_DEAD,0.05%)
		sys(TRK_EFF_LOOSE_GLOBAL,-0.14%)
		sys(metastable_interaction,0.20%)
		sys(MC_FSR,0.05%)
		sys(TRK_EFF_LOOSE_IBL,-0.01%)
	}
	bin(400.0<pt<500.0,0<abseta<2.5)
	{
		central_value(1.00,0.005)
		sys(TRK_EFF_LOOSE_PHYSMODEL,-0.09%)
		sys(MC_FRAG,-3.64%)
		sys(TRK_BIAS_Z0_WM,0.12%)
		sys(TRK_BIAS_D0_WM,0.15%)
		sys(TRK_RES_D0_DEAD,-0.06%)
		sys(TRK_BIAS_QOVERP_SAGITTA_WM,0.18%)
		sys(TRK_RES_D0_MEAS,-0.15%)
		sys(TRK_RES_Z0_MEAS,0.35%)
		sys(TRK_FAKE_RATE_LOOSE,0.30%)
		sys(TRK_FAKE_RATE_LOOSE_TIDE,0.37%)
		sys(TRK_EFF_LOOSE_TIDE,-0.05%)
		sys(TRK_EFF_LOOSE_PP0,-0.01%)
		sys(TRK_RES_Z0_DEAD,0.16%)
		sys(TRK_EFF_LOOSE_GLOBAL,-0.14%)
		sys(metastable_interaction,-0.79%)
		sys(MC_FSR,4.58%)
		sys(TRK_EFF_LOOSE_IBL,-0.00%)
	}
	bin(500.0<pt<700.0,0<abseta<2.5)
	{
		central_value(1.00,0.004)
		sys(TRK_EFF_LOOSE_PHYSMODEL,-0.13%)
		sys(MC_FRAG,-5.02%)
		sys(TRK_BIAS_Z0_WM,0.10%)
		sys(TRK_BIAS_D0_WM,0.64%)
		sys(TRK_RES_D0_DEAD,-0.13%)
		sys(TRK_BIAS_QOVERP_SAGITTA_WM,0.23%)
		sys(TRK_RES_D0_MEAS,0.59%)
		sys(TRK_RES_Z0_MEAS,-0.12%)
		sys(TRK_FAKE_RATE_LOOSE,0.14%)
		sys(TRK_FAKE_RATE_LOOSE_TIDE,0.02%)
		sys(TRK_EFF_LOOSE_TIDE,-0.00%)
		sys(TRK_EFF_LOOSE_PP0,-0.02%)
		sys(TRK_RES_Z0_DEAD,0.08%)
		sys(TRK_EFF_LOOSE_GLOBAL,-0.07%)
		sys(metastable_interaction,-1.73%)
		sys(MC_FSR,-0.57%)
		sys(TRK_EFF_LOOSE_IBL,0.06%)
	}
	bin(700.0<pt<900.0,0<abseta<2.5)
	{
		central_value(1.00,0.006)
		sys(TRK_EFF_LOOSE_PHYSMODEL,-0.07%)
		sys(MC_FRAG,-5.44%)
		sys(TRK_BIAS_Z0_WM,-0.08%)
		sys(TRK_BIAS_D0_WM,-0.04%)
		sys(TRK_RES_D0_DEAD,0.12%)
		sys(TRK_BIAS_QOVERP_SAGITTA_WM,0.18%)
		sys(TRK_RES_D0_MEAS,0.19%)
		sys(TRK_RES_Z0_MEAS,-0.27%)
		sys(TRK_FAKE_RATE_LOOSE,-0.31%)
		sys(TRK_FAKE_RATE_LOOSE_TIDE,0.46%)
		sys(TRK_EFF_LOOSE_TIDE,-0.06%)
		sys(TRK_EFF_LOOSE_PP0,-0.02%)
		sys(TRK_RES_Z0_DEAD,-0.04%)
		sys(TRK_EFF_LOOSE_GLOBAL,-0.13%)
		sys(metastable_interaction,-2.01%)
		sys(MC_FSR,-0.31%)
		sys(TRK_EFF_LOOSE_IBL,0.05%)
	}
	bin(900.0<pt<1000.0,0<abseta<2.5)
	{
		central_value(1.00,0.009)
		sys(TRK_EFF_LOOSE_PHYSMODEL,-0.07%)
		sys(MC_FRAG,-2.60%)
		sys(TRK_BIAS_Z0_WM,0.99%)
		sys(TRK_BIAS_D0_WM,0.27%)
		sys(TRK_RES_D0_DEAD,0.24%)
		sys(TRK_BIAS_QOVERP_SAGITTA_WM,0.75%)
		sys(TRK_RES_D0_MEAS,1.01%)
		sys(TRK_RES_Z0_MEAS,-0.11%)
		sys(TRK_FAKE_RATE_LOOSE,0.18%)
		sys(TRK_FAKE_RATE_LOOSE_TIDE,-2.11%)
		sys(TRK_EFF_LOOSE_TIDE,-0.04%)
		sys(TRK_EFF_LOOSE_PP0,0.01%)
		sys(TRK_RES_Z0_DEAD,0.43%)
		sys(TRK_EFF_LOOSE_GLOBAL,-0.06%)
		sys(metastable_interaction,-4.61%)
		sys(MC_FSR,2.25%)
		sys(TRK_EFF_LOOSE_IBL,-0.03%)
	}
}
