Analysis(Run2MCcalib,light,DL1r,FixedCutBEff_100,AntiKtVR30Rmax4Rmin02TrackJets){
	bin(300.0<pt<500.0,0<abseta<2.5)
	{
		central_value(1.00,0.000)
		sys(TRK_EFF_LOOSE_PHYSMODEL,0.00%)
		sys(TRK_BIAS_Z0_WM,0.00%)
		sys(TRK_BIAS_D0_WM,0.00%)
		sys(TRK_RES_D0_DEAD,-0.00%)
		sys(TRK_FAKE_RATE_LOOSE,0.15%)
		sys(TRK_EFF_LOOSE_TIDE,-0.00%)
		sys(TRK_EFF_LOOSE_GLOBAL,0.01%)
		sys(TRK_EFF_LOOSE_PP0,-0.00%)
		sys(TRK_RES_Z0_DEAD,-0.01%)
		sys(TRK_BIAS_QOVERP_SAGITTA_WM,0.00%)
		sys(TRK_FAKE_RATE_LOOSE_TIDE,0.38%)
		sys(TRK_EFF_LOOSE_IBL,0.01%)
	}
	bin(500.0<pt<800.0,0<abseta<2.5)
	{
		central_value(1.00,0.000)
		sys(TRK_EFF_LOOSE_PHYSMODEL,0.00%)
		sys(TRK_BIAS_Z0_WM,0.00%)
		sys(TRK_BIAS_D0_WM,-0.00%)
		sys(TRK_RES_D0_DEAD,0.00%)
		sys(TRK_FAKE_RATE_LOOSE,0.29%)
		sys(TRK_EFF_LOOSE_TIDE,-0.00%)
		sys(TRK_EFF_LOOSE_GLOBAL,0.00%)
		sys(TRK_EFF_LOOSE_PP0,-0.00%)
		sys(TRK_RES_Z0_DEAD,-0.00%)
		sys(TRK_BIAS_QOVERP_SAGITTA_WM,0.00%)
		sys(TRK_FAKE_RATE_LOOSE_TIDE,0.71%)
		sys(TRK_EFF_LOOSE_IBL,0.00%)
	}
	bin(800.0<pt<1200.0,0<abseta<2.5)
	{
		central_value(1.00,0.000)
		sys(TRK_EFF_LOOSE_PHYSMODEL,-0.01%)
		sys(TRK_BIAS_Z0_WM,-0.00%)
		sys(TRK_BIAS_D0_WM,0.01%)
		sys(TRK_RES_D0_DEAD,0.00%)
		sys(TRK_FAKE_RATE_LOOSE,0.29%)
		sys(TRK_EFF_LOOSE_TIDE,-0.00%)
		sys(TRK_EFF_LOOSE_GLOBAL,-0.01%)
		sys(TRK_EFF_LOOSE_PP0,-0.00%)
		sys(TRK_RES_Z0_DEAD,0.00%)
		sys(TRK_BIAS_QOVERP_SAGITTA_WM,0.02%)
		sys(TRK_FAKE_RATE_LOOSE_TIDE,0.73%)
		sys(TRK_EFF_LOOSE_IBL,-0.01%)
	}
	bin(1200.0<pt<2000.0,0<abseta<2.5)
	{
		central_value(1.00,0.000)
		sys(TRK_EFF_LOOSE_PHYSMODEL,-0.01%)
		sys(TRK_BIAS_Z0_WM,0.01%)
		sys(TRK_BIAS_D0_WM,0.01%)
		sys(TRK_RES_D0_DEAD,0.02%)
		sys(TRK_FAKE_RATE_LOOSE,0.23%)
		sys(TRK_EFF_LOOSE_TIDE,-0.00%)
		sys(TRK_EFF_LOOSE_GLOBAL,-0.01%)
		sys(TRK_EFF_LOOSE_PP0,-0.00%)
		sys(TRK_RES_Z0_DEAD,-0.00%)
		sys(TRK_BIAS_QOVERP_SAGITTA_WM,0.00%)
		sys(TRK_FAKE_RATE_LOOSE_TIDE,0.61%)
		sys(TRK_EFF_LOOSE_IBL,-0.01%)
	}
	bin(2000.0<pt<3000.0,0<abseta<2.5)
	{
		central_value(1.00,0.001)
		sys(TRK_EFF_LOOSE_PHYSMODEL,-0.01%)
		sys(TRK_BIAS_Z0_WM,0.00%)
		sys(TRK_BIAS_D0_WM,0.03%)
		sys(TRK_RES_D0_DEAD,0.04%)
		sys(TRK_FAKE_RATE_LOOSE,0.21%)
		sys(TRK_EFF_LOOSE_TIDE,-0.00%)
		sys(TRK_EFF_LOOSE_GLOBAL,-0.02%)
		sys(TRK_EFF_LOOSE_PP0,-0.00%)
		sys(TRK_RES_Z0_DEAD,0.00%)
		sys(TRK_BIAS_QOVERP_SAGITTA_WM,0.04%)
		sys(TRK_FAKE_RATE_LOOSE_TIDE,0.56%)
		sys(TRK_EFF_LOOSE_IBL,-0.02%)
	}
}
