Analysis(Run2MCcalib,charm,DL1r,FixedCutBEff_85,AntiKtVR30Rmax4Rmin02TrackJets){
	bin(10.0<pt<20.0,0<abseta<2.5)
	{
		central_value(1.00,0.000)
		sys(TRK_EFF_LOOSE_PHYSMODEL,-0.01%)
		sys(TRK_BIAS_Z0_WM,-0.34%)
		sys(TRK_BIAS_D0_WM,-0.17%)
		sys(TRK_RES_D0_DEAD,-0.13%)
		sys(TRK_FAKE_RATE_LOOSE,-0.67%)
		sys(TRK_EFF_LOOSE_TIDE,-0.00%)
		sys(TRK_EFF_LOOSE_GLOBAL,-0.09%)
		sys(TRK_EFF_LOOSE_PP0,-0.05%)
		sys(TRK_RES_Z0_DEAD,-0.00%)
		sys(TRK_BIAS_QOVERP_SAGITTA_WM,-0.05%)
		sys(TRK_FAKE_RATE_LOOSE_TIDE,-1.93%)
		sys(TRK_EFF_LOOSE_IBL,-0.06%)
	}
	bin(20.0<pt<40.0,0<abseta<2.5)
	{
		central_value(1.00,0.005)
		sys(TRK_EFF_LOOSE_PHYSMODEL,-0.01%)
		sys(TRK_BIAS_Z0_WM,-0.07%)
		sys(TRK_BIAS_D0_WM,-0.07%)
		sys(TRK_RES_D0_DEAD,0.13%)
		sys(TRK_FAKE_RATE_LOOSE,-0.59%)
		sys(TRK_EFF_LOOSE_TIDE,0.00%)
		sys(TRK_EFF_LOOSE_GLOBAL,-0.08%)
		sys(TRK_EFF_LOOSE_PP0,-0.05%)
		sys(TRK_RES_Z0_DEAD,0.17%)
		sys(TRK_BIAS_QOVERP_SAGITTA_WM,0.00%)
		sys(TRK_FAKE_RATE_LOOSE_TIDE,-1.59%)
		sys(TRK_EFF_LOOSE_IBL,-0.02%)
	}
	bin(40.0<pt<65.0,0<abseta<2.5)
	{
		central_value(1.00,0.005)
		sys(TRK_EFF_LOOSE_PHYSMODEL,0.12%)
		sys(TRK_BIAS_Z0_WM,-0.16%)
		sys(TRK_BIAS_D0_WM,-0.09%)
		sys(TRK_RES_D0_DEAD,-0.02%)
		sys(TRK_FAKE_RATE_LOOSE,-0.20%)
		sys(TRK_EFF_LOOSE_TIDE,0.03%)
		sys(TRK_EFF_LOOSE_GLOBAL,0.05%)
		sys(TRK_EFF_LOOSE_PP0,-0.02%)
		sys(TRK_RES_Z0_DEAD,0.16%)
		sys(TRK_BIAS_QOVERP_SAGITTA_WM,-0.02%)
		sys(TRK_FAKE_RATE_LOOSE_TIDE,-0.74%)
		sys(TRK_EFF_LOOSE_IBL,0.11%)
	}
	bin(65.0<pt<140.0,0<abseta<2.5)
	{
		central_value(1.00,0.003)
		sys(TRK_EFF_LOOSE_PHYSMODEL,0.00%)
		sys(TRK_BIAS_Z0_WM,0.00%)
		sys(TRK_BIAS_D0_WM,0.00%)
		sys(TRK_RES_D0_DEAD,0.00%)
		sys(TRK_FAKE_RATE_LOOSE,0.00%)
		sys(TRK_EFF_LOOSE_TIDE,0.00%)
		sys(TRK_EFF_LOOSE_GLOBAL,0.00%)
		sys(TRK_EFF_LOOSE_PP0,0.00%)
		sys(TRK_RES_Z0_DEAD,0.00%)
		sys(TRK_BIAS_QOVERP_SAGITTA_WM,0.00%)
		sys(TRK_FAKE_RATE_LOOSE_TIDE,0.00%)
		sys(TRK_EFF_LOOSE_IBL,0.00%)
	}
	bin(140.0<pt<250.0,0<abseta<2.5)
	{
		central_value(1.00,0.003)
		sys(TRK_EFF_LOOSE_PHYSMODEL,0.09%)
		sys(TRK_BIAS_Z0_WM,-0.06%)
		sys(TRK_BIAS_D0_WM,-0.10%)
		sys(TRK_RES_D0_DEAD,0.22%)
		sys(TRK_FAKE_RATE_LOOSE,1.07%)
		sys(TRK_EFF_LOOSE_TIDE,0.03%)
		sys(TRK_EFF_LOOSE_GLOBAL,0.08%)
		sys(TRK_EFF_LOOSE_PP0,-0.05%)
		sys(TRK_RES_Z0_DEAD,0.27%)
		sys(TRK_BIAS_QOVERP_SAGITTA_WM,0.03%)
		sys(TRK_FAKE_RATE_LOOSE_TIDE,2.49%)
		sys(TRK_EFF_LOOSE_IBL,0.09%)
	}
	bin(250.0<pt<400.0,0<abseta<2.5)
	{
		central_value(1.00,0.003)
		sys(TRK_EFF_LOOSE_PHYSMODEL,0.01%)
		sys(TRK_BIAS_Z0_WM,-0.14%)
		sys(TRK_BIAS_D0_WM,0.18%)
		sys(TRK_RES_D0_DEAD,0.10%)
		sys(TRK_FAKE_RATE_LOOSE,1.06%)
		sys(TRK_EFF_LOOSE_TIDE,0.01%)
		sys(TRK_EFF_LOOSE_GLOBAL,-0.08%)
		sys(TRK_EFF_LOOSE_PP0,-0.05%)
		sys(TRK_RES_Z0_DEAD,0.13%)
		sys(TRK_BIAS_QOVERP_SAGITTA_WM,0.14%)
		sys(TRK_FAKE_RATE_LOOSE_TIDE,3.88%)
		sys(TRK_EFF_LOOSE_IBL,-0.01%)
	}
	bin(400.0<pt<650.0,0<abseta<2.5)
	{
		central_value(1.00,0.002)
		sys(TRK_EFF_LOOSE_PHYSMODEL,0.02%)
		sys(TRK_BIAS_Z0_WM,-0.21%)
		sys(TRK_BIAS_D0_WM,-0.13%)
		sys(TRK_RES_D0_DEAD,0.14%)
		sys(TRK_FAKE_RATE_LOOSE,2.18%)
		sys(TRK_EFF_LOOSE_TIDE,0.02%)
		sys(TRK_EFF_LOOSE_GLOBAL,0.00%)
		sys(TRK_EFF_LOOSE_PP0,-0.04%)
		sys(TRK_RES_Z0_DEAD,0.10%)
		sys(TRK_BIAS_QOVERP_SAGITTA_WM,0.02%)
		sys(TRK_FAKE_RATE_LOOSE_TIDE,4.99%)
		sys(TRK_EFF_LOOSE_IBL,0.01%)
	}
	bin(650.0<pt<1000.0,0<abseta<2.5)
	{
		central_value(1.00,0.003)
		sys(TRK_EFF_LOOSE_PHYSMODEL,0.02%)
		sys(TRK_BIAS_Z0_WM,0.15%)
		sys(TRK_BIAS_D0_WM,0.05%)
		sys(TRK_RES_D0_DEAD,0.22%)
		sys(TRK_FAKE_RATE_LOOSE,2.53%)
		sys(TRK_EFF_LOOSE_TIDE,-0.00%)
		sys(TRK_EFF_LOOSE_GLOBAL,-0.08%)
		sys(TRK_EFF_LOOSE_PP0,-0.05%)
		sys(TRK_RES_Z0_DEAD,0.35%)
		sys(TRK_BIAS_QOVERP_SAGITTA_WM,0.15%)
		sys(TRK_FAKE_RATE_LOOSE_TIDE,6.18%)
		sys(TRK_EFF_LOOSE_IBL,0.11%)
	}
}
